SimpleCPUv1a_amaranth/standardised_waveforms/ALU.vcd
$comment Generated by Amaranth $end
$date 2025-05-10 19:22:58.141674 $end
$timescale 1 fs $end
$scope module bench $end
$scope module top $end
$var wire 8 ! A $end
$var wire 8 " A$1 $end
$var wire 8 # B $end
$var wire 8 $ B$3 $end
$var wire 3 % CTL $end
$var wire 3 & CTL$5 $end
$var wire 8 ' Y $end
$var wire 8 ( Y$7 $end
$scope module alu $end
$var wire 8 ! A $end
$var wire 8 # B $end
$var wire 3 % CTL$6 $end
$var wire 8 ( Y $end
$var wire 8 ) andOut $end
$var wire 8 * A$3 $end
$var wire 8 + B$4 $end
$var wire 1 , CTL $end
$var wire 8 - A$7 $end
$var wire 8 . S $end
$var wire 8 / B$9 $end
$var wire 8 0 C $end
$var wire 2 1 SEL $end
$var wire 8 2 Y$13 $end
$scope module addSub8bit $end
$var wire 8 * A$4 $end
$var wire 8 + B $end
$var wire 1 , CTL $end
$var wire 8 . S $end
$var wire 8 3 B_processed $end
$var wire 8 4 A $end
$var wire 8 5 B$5 $end
$var wire 1 6 Cin $end
$var wire 8 7 S$8 $end
$var wire 1 8 Cout $end
$var wire 1 9 Cout$10 $end
$scope module fa $end
$var wire 8 4 A$3 $end
$var wire 8 5 B$5 $end
$var wire 1 6 Cin $end
$var wire 8 7 S $end
$var wire 1 9 Cout$45 $end
$var wire 9 : carry $end
$var wire 1 ; A $end
$var wire 1 < B $end
$var wire 1 = Cin$6 $end
$var wire 1 > S$8 $end
$var wire 1 ? Cout $end
$var wire 1 @ A$10 $end
$var wire 1 A B$11 $end
$var wire 1 B Cin$12 $end
$var wire 1 C S$13 $end
$var wire 1 D Cout$14 $end
$var wire 1 E A$15 $end
$var wire 1 F B$16 $end
$var wire 1 G Cin$17 $end
$var wire 1 H S$18 $end
$var wire 1 I Cout$19 $end
$var wire 1 J A$20 $end
$var wire 1 K B$21 $end
$var wire 1 L Cin$22 $end
$var wire 1 M S$23 $end
$var wire 1 N Cout$24 $end
$var wire 1 O A$25 $end
$var wire 1 P B$26 $end
$var wire 1 Q Cin$27 $end
$var wire 1 R S$28 $end
$var wire 1 S Cout$29 $end
$var wire 1 T A$30 $end
$var wire 1 U B$31 $end
$var wire 1 V Cin$32 $end
$var wire 1 W S$33 $end
$var wire 1 X Cout$34 $end
$var wire 1 Y A$35 $end
$var wire 1 Z B$36 $end
$var wire 1 [ Cin$37 $end
$var wire 1 \ S$38 $end
$var wire 1 ] Cout$39 $end
$var wire 1 ^ A$40 $end
$var wire 1 _ B$41 $end
$var wire 1 ` Cin$42 $end
$var wire 1 a S$43 $end
$var wire 1 b Cout$44 $end
$scope module fa0 $end
$var wire 1 ; A$1 $end
$var wire 1 < B$3 $end
$var wire 1 = Cin $end
$var wire 1 > S$8 $end
$var wire 1 ? Cout $end
$var wire 1 c A $end
$var wire 1 d B $end
$var wire 1 e A$4 $end
$var wire 1 f S $end
$var wire 1 g B$6 $end
$var wire 1 h S$9 $end
$var wire 1 i Cout$11 $end
$var wire 1 j Cout$12 $end
$scope module ha1 $end
$var wire 1 c A $end
$var wire 1 d B $end
$var wire 1 f S $end
$var wire 1 i Cout $end
$upscope $end
$scope module ha2 $end
$var wire 1 e A $end
$var wire 1 g B $end
$var wire 1 h S $end
$var wire 1 j Cout $end
$upscope $end
$upscope $end
$scope module fa1 $end
$var wire 1 @ A$1 $end
$var wire 1 A B$3 $end
$var wire 1 B Cin $end
$var wire 1 C S$8 $end
$var wire 1 D Cout $end
$var wire 1 k A $end
$var wire 1 l B $end
$var wire 1 m A$4 $end
$var wire 1 n S $end
$var wire 1 o B$6 $end
$var wire 1 p S$9 $end
$var wire 1 q Cout$11 $end
$var wire 1 r Cout$12 $end
$scope module ha1 $end
$var wire 1 k A $end
$var wire 1 l B $end
$var wire 1 n S $end
$var wire 1 q Cout $end
$upscope $end
$scope module ha2 $end
$var wire 1 m A $end
$var wire 1 o B $end
$var wire 1 p S $end
$var wire 1 r Cout $end
$upscope $end
$upscope $end
$scope module fa2 $end
$var wire 1 E A$1 $end
$var wire 1 F B$3 $end
$var wire 1 G Cin $end
$var wire 1 H S$8 $end
$var wire 1 I Cout $end
$var wire 1 s A $end
$var wire 1 t B $end
$var wire 1 u A$4 $end
$var wire 1 v S $end
$var wire 1 w B$6 $end
$var wire 1 x S$9 $end
$var wire 1 y Cout$11 $end
$var wire 1 z Cout$12 $end
$scope module ha1 $end
$var wire 1 s A $end
$var wire 1 t B $end
$var wire 1 v S $end
$var wire 1 y Cout $end
$upscope $end
$scope module ha2 $end
$var wire 1 u A $end
$var wire 1 w B $end
$var wire 1 x S $end
$var wire 1 z Cout $end
$upscope $end
$upscope $end
$scope module fa3 $end
$var wire 1 J A$1 $end
$var wire 1 K B$3 $end
$var wire 1 L Cin $end
$var wire 1 M S$8 $end
$var wire 1 N Cout $end
$var wire 1 { A $end
$var wire 1 | B $end
$var wire 1 } A$4 $end
$var wire 1 ~ S $end
$var wire 1 !! B$6 $end
$var wire 1 "! S$9 $end
$var wire 1 #! Cout$11 $end
$var wire 1 $! Cout$12 $end
$scope module ha1 $end
$var wire 1 { A $end
$var wire 1 | B $end
$var wire 1 ~ S $end
$var wire 1 #! Cout $end
$upscope $end
$scope module ha2 $end
$var wire 1 } A $end
$var wire 1 !! B $end
$var wire 1 "! S $end
$var wire 1 $! Cout $end
$upscope $end
$upscope $end
$scope module fa4 $end
$var wire 1 O A$1 $end
$var wire 1 P B$3 $end
$var wire 1 Q Cin $end
$var wire 1 R S$8 $end
$var wire 1 S Cout $end
$var wire 1 %! A $end
$var wire 1 &! B $end
$var wire 1 '! A$4 $end
$var wire 1 (! S $end
$var wire 1 )! B$6 $end
$var wire 1 *! S$9 $end
$var wire 1 +! Cout$11 $end
$var wire 1 ,! Cout$12 $end
$scope module ha1 $end
$var wire 1 %! A $end
$var wire 1 &! B $end
$var wire 1 (! S $end
$var wire 1 +! Cout $end
$upscope $end
$scope module ha2 $end
$var wire 1 '! A $end
$var wire 1 )! B $end
$var wire 1 *! S $end
$var wire 1 ,! Cout $end
$upscope $end
$upscope $end
$scope module fa5 $end
$var wire 1 T A$1 $end
$var wire 1 U B$3 $end
$var wire 1 V Cin $end
$var wire 1 W S$8 $end
$var wire 1 X Cout $end
$var wire 1 -! A $end
$var wire 1 .! B $end
$var wire 1 /! A$4 $end
$var wire 1 0! S $end
$var wire 1 1! B$6 $end
$var wire 1 2! S$9 $end
$var wire 1 3! Cout$11 $end
$var wire 1 4! Cout$12 $end
$scope module ha1 $end
$var wire 1 -! A $end
$var wire 1 .! B $end
$var wire 1 0! S $end
$var wire 1 3! Cout $end
$upscope $end
$scope module ha2 $end
$var wire 1 /! A $end
$var wire 1 1! B $end
$var wire 1 2! S $end
$var wire 1 4! Cout $end
$upscope $end
$upscope $end
$scope module fa6 $end
$var wire 1 Y A$1 $end
$var wire 1 Z B$3 $end
$var wire 1 [ Cin $end
$var wire 1 \ S$8 $end
$var wire 1 ] Cout $end
$var wire 1 5! A $end
$var wire 1 6! B $end
$var wire 1 7! A$4 $end
$var wire 1 8! S $end
$var wire 1 9! B$6 $end
$var wire 1 :! S$9 $end
$var wire 1 ;! Cout$11 $end
$var wire 1 <! Cout$12 $end
$scope module ha1 $end
$var wire 1 5! A $end
$var wire 1 6! B $end
$var wire 1 8! S $end
$var wire 1 ;! Cout $end
$upscope $end
$scope module ha2 $end
$var wire 1 7! A $end
$var wire 1 9! B $end
$var wire 1 :! S $end
$var wire 1 <! Cout $end
$upscope $end
$upscope $end
$scope module fa7 $end
$var wire 1 ^ A$1 $end
$var wire 1 _ B$3 $end
$var wire 1 ` Cin $end
$var wire 1 a S$8 $end
$var wire 1 b Cout $end
$var wire 1 =! A $end
$var wire 1 >! B $end
$var wire 1 ?! A$4 $end
$var wire 1 @! S $end
$var wire 1 A! B$6 $end
$var wire 1 B! S$9 $end
$var wire 1 C! Cout$11 $end
$var wire 1 D! Cout$12 $end
$scope module ha1 $end
$var wire 1 =! A $end
$var wire 1 >! B $end
$var wire 1 @! S $end
$var wire 1 C! Cout $end
$upscope $end
$scope module ha2 $end
$var wire 1 ?! A $end
$var wire 1 A! B $end
$var wire 1 B! S $end
$var wire 1 D! Cout $end
$upscope $end
$upscope $end
$upscope $end
$upscope $end
$scope module mux3_8 $end
$var wire 8 - A $end
$var wire 8 / B $end
$var wire 8 0 C $end
$var wire 2 1 SEL $end
$var wire 8 2 Y $end
$var wire 8 E! mux_ab $end
$upscope $end
$upscope $end
$upscope $end
$upscope $end
$enddefinitions $end
#0
$dumpvars
b0 !
b0 "
b0 #
b0 $
b0 %
b0 &
b0 '
b0 (
b0 )
b0 *
b0 +
0,
b0 -
b0 .
b0 /
b0 0
b0 1
b0 2
b0 3
b0 4
b0 5
06
b0 7
08
09
b0 :
0;
0<
0=
0>
0?
0@
0A
0B
0C
0D
0E
0F
0G
0H
0I
0J
0K
0L
0M
0N
0O
0P
0Q
0R
0S
0T
0U
0V
0W
0X
0Y
0Z
0[
0\
0]
0^
0_
0`
0a
0b
0c
0d
0e
0f
0g
0h
0i
0j
0k
0l
0m
0n
0o
0p
0q
0r
0s
0t
0u
0v
0w
0x
0y
0z
0{
0|
0}
0~
0!!
0"!
0#!
0$!
0%!
0&!
0'!
0(!
0)!
0*!
0+!
0,!
0-!
0.!
0/!
00!
01!
02!
03!
04!
05!
06!
07!
08!
09!
0:!
0;!
0<!
0=!
0>!
0?!
0@!
0A!
0B!
0C!
0D!
b0 E!
$end
#500000000
b1111 "
b1111 !
b1111 *
b1111 4
1;
1@
1J
1E
1c
1k
1s
1{
1f
1~
1v
1n
1m
1u
1e
1}
1h
1"!
1p
1x
1C
1H
1M
1>
b1111 7
b1111 .
b1111 -
b1111 E!
b1111 2
b1111 (
b1111 '
b11 $
b11 #
b11 +
b11 0
b11 )
b11 /
b11 3
b11 5
1<
1A
1d
1l
1i
0f
1q
0n
1?
0m
0e
1D
0h
0p
b110 :
1B
0C
1G
0>
1o
1w
b1100 7
b1100 .
1z
1p
0x
b1100 -
1C
0H
1I
b1100 E!
b1010 7
b1110 :
b1100 2
b1010 .
1L
b1010 -
1!!
b1100 (
0"!
b1010 E!
1$!
b1100 '
1N
b1010 2
0M
b10 7
b1010 (
b11110 :
b10 .
1Q
b1010 '
b10 -
1)!
b10 E!
1*!
b10 2
1R
b10010 7
b10 (
b10010 .
b10 '
b10010 -
b10010 E!
b10010 2
b10010 (
b10010 '
#1500000000
b11111111 "
b11111111 !
b11111111 *
b11111111 4
1^
1Y
1T
1O
1-!
15!
1=!
1%!
1@!
10!
18!
1(!
17!
1/!
1?!
1'!
12!
1:!
1,!
1B!
0*!
1W
1\
1S
1a
0R
b11100010 7
b111110 :
b11100010 .
1V
11!
b11100010 -
b11100010 E!
14!
02!
b11100010 2
0W
1X
b11000010 7
b11100010 (
b1111110 :
b11000010 .
1[
b11100010 '
19!
b11000010 -
b11000010 E!
1<!
0:!
b11000010 2
0\
1]
b10000010 7
b11000010 (
b11111110 :
b10000010 .
1`
b11000010 '
1A!
b10000010 -
b10000010 E!
1D!
0B!
1b
b10000010 2
0a
b10 7
b10000010 (
b111111110 :
19
b10 .
b10000010 '
18
b10 -
b10 E!
b10 2
b10 (
b10 '
b1 $
b1 #
b1 +
b1 0
b1 )
b1 /
b1 3
b1 5
0A
0l
0q
1n
1m
0D
1r
0p
b111111010 :
0C
1D
0G
0w
b0 7
b111111110 :
1G
b0 .
0z
1x
b0 -
1w
1H
0I
0x
b0 E!
1z
b100 7
b111110110 :
1I
b0 2
0H
0L
b100 .
0!!
b0 (
b100 -
b0 7
b111111110 :
0$!
b100 E!
b0 '
1"!
1L
b0 .
b100 2
1!!
0N
1M
b0 -
1$!
b0 E!
b100 (
0"!
b1000 7
b111101110 :
0Q
b0 2
b100 '
1N
0M
b1000 .
0)!
b0 (
b1000 -
b0 7
b111111110 :
1Q
b1000 E!
b0 '
0,!
b0 .
1*!
1)!
b1000 2
0S
b0 -
1R
b0 E!
b1000 (
1,!
0*!
b10000 7
b111011110 :
b0 2
b1000 '
0V
b10000 .
1S
0R
01!
b0 (
b10000 -
b0 7
b111111110 :
12!
b10000 E!
b0 '
1V
04!
b0 .
11!
0X
b10000 2
1W
b0 -
02!
b0 E!
b10000 (
14!
b100000 7
b110111110 :
0[
1X
b0 2
0W
b10000 '
b100000 .
09!
b0 (
b100000 -
b0 7
b111111110 :
1[
b100000 E!
1:!
b0 '
b0 .
0<!
19!
b100000 2
0]
1\
b0 -
b0 E!
0:!
b100000 (
1<!
b1000000 7
b101111110 :
b0 2
b100000 '
1]
0`
0\
b1000000 .
b0 (
0A!
b1000000 -
b0 7
b111111110 :
0D!
b1000000 E!
b0 '
1`
1B!
b0 .
b1000000 2
1A!
0b
b0 -
1a
1D!
b0 E!
b1000000 (
0B!
b10000000 7
b11111110 :
b0 2
b1000000 '
09
1b
b10000000 .
0a
08
b0 (
b10000000 -
b0 7
b111111110 :
19
b0 .
b10000000 E!
b0 '
b10000000 2
18
b0 -
b0 E!
b10000000 (
b0 2
b10000000 '
b0 (
b0 '
#2500000000
b1010 "
b1010 !
b1010 *
b0 )
b0 /
b1010 4
0;
0^
0T
0Y
0O
0E
0s
05!
0-!
0c
0=!
0%!
08!
0i
0@!
0(!
1f
00!
0v
07!
0u
1e
0?!
0'!
0?
0/!
0D!
12!
1x
1:!
0,!
0z
04!
1B!
1h
0<!
1*!
b111111100 :
0X
0I
1W
1H
0B
0]
1\
1>
0b
0S
1a
1R
0o
b11110101 7
b10100 :
0[
1p
09
0`
0V
0L
b11110101 .
0r
01!
08
1C
09!
0!!
0A!
b11110101 -
0D
02!
0$!
b11110101 E!
0:!
1"!
0B!
b11110111 7
b10000 :
0G
b11110101 2
0W
0N
0\
1M
b11110111 .
0a
0w
b11110101 (
b11110111 -
b11111 7
b0 :
0Q
0x
b11110111 E!
b11110101 '
b11111 .
b11110111 2
b11111 -
0H
0)!
b11011 7
b11111 E!
0*!
b11110111 (
b11111 2
b11011 .
b11110111 '
0R
b1011 7
b11011 -
b11111 (
b1011 .
b11011 E!
b11111 '
b11011 2
b1011 -
b1011 E!
b11011 (
b1011 2
b11011 '
b1011 (
b1011 '
b10100 $
b10100 #
b10100 +
b10100 0
b10100 3
b10100 5
1P
0<
1F
0d
1&!
1t
0f
1(!
1v
1u
0e
1'!
0h
1*!
1x
0>
1H
1R
b11110 7
b11110 .
b11110 -
b11110 E!
b11110 2
b11110 (
b11110 '
b1 &
b1 %
1,
16
b11101011 3
b1 :
b11101011 5
0P
0F
1<
1_
1=
1U
1K
1A
1Z
1d
1l
1g
1.!
0t
16!
1|
1>!
0&!
1#!
18!
1@!
0~
0(!
0n
1f
10!
1q
1h
0v
17!
0u
1e
0}
0m
1?!
1N
0'!
1>
1/!
1D
12!
0p
0x
1:!
0"!
1j
1B!
0h
0*!
b11111 7
b10101 :
0C
1Q
1G
1W
0H
1\
0M
0>
b11111 .
1?
1a
0R
1)!
1w
b11111 -
b11100000 7
b10111 :
1x
b11111 E!
1B
b11100000 .
1*!
1o
b11111 2
1H
b11100000 -
1R
b11110100 7
b11100000 E!
1p
b11111 (
b11100000 2
b11110100 .
b11111 '
1C
b11110110 7
b11110100 -
b11100000 (
b11110110 .
b11110100 E!
b11100000 '
b11110100 2
b11110110 -
b11110110 E!
b11110100 (
b11110110 2
b11110100 '
b11110110 (
b11110110 '
#3500000000
b10100 "
b10100 !
b10100 *
b10100 )
b10100 /
b10100 4
0@
0J
1E
1O
0{
0k
1s
1%!
0#!
1~
1(!
1n
0q
1v
1u
1}
1m
0N
1'!
0D
0p
0x
1,!
1z
1"!
1r
0*!
b11 :
0C
0Q
1I
0G
0H
1M
1S
1D
0R
0w
0)!
b11101000 7
b101111 :
1G
1x
0,!
0z
1V
1L
b11101000 .
1*!
11!
0I
1w
1H
1!!
0S
b11101000 -
1R
02!
0x
1$!
b11101000 E!
0"!
14!
1z
b11111100 7
b111 :
1X
1I
b11101000 2
0W
0H
1N
0V
0M
0L
b11111100 .
01!
0!!
b11101000 (
b11111100 -
b11010000 7
b1011111 :
1[
12!
1Q
0$!
b11111100 E!
b11101000 '
1"!
04!
1L
b11010000 .
1)!
0X
19!
1W
b11111100 2
1!!
0N
1M
b11010000 -
1$!
b11010000 E!
0:!
b11111100 (
1,!
0"!
1<!
0*!
b11111000 7
b1111 :
0[
0Q
b11010000 2
b11111100 '
1]
1N
0\
0M
b11111000 .
1S
0R
0)!
09!
b11010000 (
b11111000 -
b10100000 7
b10111111 :
1Q
b11111000 E!
1:!
b11010000 '
0,!
1`
1V
b10100000 .
0<!
1*!
11!
1)!
b11111000 2
0]
1A!
1\
0S
b10100000 -
1R
1D!
02!
b10100000 E!
b11111000 (
1,!
14!
0B!
0*!
b11110000 7
b11111 :
1X
b10100000 2
0W
b11111000 '
0`
0V
1b
b11110000 .
1S
0a
0R
01!
b10100000 (
0A!
b11110000 -
b1000000 7
b101111111 :
1[
0D!
12!
b11110000 E!
b10100000 '
19
1V
04!
1B!
b1000000 .
11!
18
0X
19!
1W
b11110000 2
0b
b1000000 -
1a
02!
b1000000 E!
0:!
b11110000 (
14!
1<!
b11100000 7
b111111 :
0[
1X
b1000000 2
0W
1]
b11110000 '
09
0\
b11100000 .
08
09!
b1000000 (
b11100000 -
b10000000 7
b11111111 :
1[
b11100000 E!
1:!
b1000000 '
1`
b10000000 .
0<!
19!
b11100000 2
0]
1A!
1\
b10000000 -
1D!
b10000000 E!
0:!
b11100000 (
0B!
1<!
b11000000 7
b1111111 :
b10000000 2
b11100000 '
1]
0`
0\
1b
b11000000 .
0a
b10000000 (
0A!
b11000000 -
b0 7
b111111111 :
0D!
b11000000 E!
b10000000 '
19
1`
1B!
b0 .
18
b11000000 2
1A!
0b
b0 -
1a
1D!
b0 E!
b11000000 (
0B!
b10000000 7
b11111111 :
b0 2
b11000000 '
09
1b
b10000000 .
0a
08
b0 (
b10000000 -
b0 7
b111111111 :
19
b0 .
b10000000 E!
b0 '
b10000000 2
18
b0 -
b0 E!
b10000000 (
b0 2
b10000000 '
b0 (
b0 '
b1010 $
b1010 #
b1010 +
b1010 0
b0 )
b0 /
b11110101 3
b11110101 5
1P
0K
1F
0A
1t
0|
0l
1&!
1+!
0~
0(!
0n
1y
0v
0m
0u
0'!
0}
1p
1x
0$!
0,!
0z
1"!
0r
1*!
1C
1H
0N
1M
0D
1R
b11110 7
b111101011 :
b11110 .
0Q
0G
0w
b11110 -
0)!
b11110 E!
0*!
0x
b11110 2
0H
0R
b1010 7
b11110 (
b1010 .
b11110 '
b1010 -
b1010 E!
b1010 2
b1010 (
b1010 '
#4500000000
b1111 "
b1111 !
b1111 *
b1010 )
b1010 /
b1111 4
1;
1@
1J
0O
1{
1c
1k
0%!
0+!
1i
1~
1(!
1n
0f
0e
1}
1'!
0S
1m
0p
1$!
0"!
0j
1h
1r
1*!
b111001011 :
0C
1N
0V
0M
1>
1D
1R
01!
b10001 7
b111011111 :
1Q
12!
1G
04!
b10001 .
1)!
0X
1W
1w
b10001 -
1x
b10001 E!
1,!
0*!
b110001 7
b110011111 :
0[
b10001 2
1H
b110001 .
1S
0R
09!
b10001 (
b110001 -
b100101 7
b110111111 :
b110001 E!
1:!
b10001 '
1V
b100101 .
0<!
11!
b110001 2
0]
1\
b100101 -
02!
b100101 E!
b110001 (
14!
b1100101 7
b100111111 :
1X
b100101 2
0W
b110001 '
0`
b1100101 .
b100101 (
0A!
b1100101 -
b1000101 7
b101111111 :
1[
0D!
b1100101 E!
b100101 '
1B!
b1000101 .
19!
b1100101 2
0b
b1000101 -
1a
b1000101 E!
0:!
b1100101 (
1<!
b11000101 7
b1111111 :
b1000101 2
b1100101 '
1]
09
0\
b11000101 .
08
b1000101 (
b11000101 -
b10000101 7
b11111111 :
b10000101 .
1`
b11000101 E!
b1000101 '
1A!
b10000101 -
b11000101 2
b10000101 E!
1D!
0B!
b11000101 (
1b
b10000101 2
0a
b11000101 '
b101 7
b10000101 (
b111111111 :
19
b101 .
b10000101 '
18
b101 -
b101 E!
b101 2
b101 (
b101 '
b11 $
b11 #
b11 +
b11 0
b11 )
b11 /
b11111100 3
b11111100 5
0<
1K
0d
1|
0i
1f
1#!
0~
0?
1e
0}
0$!
1"!
1j
0h
b111111101 :
0B
1?
1M
0>
0o
b1100 7
b111111111 :
1B
b1100 .
0r
1p
1o
b1100 -
0D
1C
0p
b1100 E!
1r
b1110 7
b111111011 :
0C
0G
b1100 2
b1110 .
1D
0w
b1100 (
b1110 -
b1100 7
b111111111 :
1G
0x
b1110 E!
b1100 '
b1100 .
b1110 2
1w
b1100 -
0H
b1000 7
b1100 E!
b1110 (
1x
b1100 2
b1000 .
1H
b1110 '
b1100 7
b1000 -
b1100 (
b1100 .
b1000 E!
b1100 '
b1000 2
b1100 -
b1100 E!
b1000 (
b1100 2
b1000 '
b1100 (
b1100 '
b10 &
b10 %
b1 1
0,
b11 E!
06
b11 3
b11 2
b111111110 :
b11 5
0P
0F
1<
0_
0=
0U
b11 (
0K
1A
0Z
1d
1l
0g
0.!
b11 '
0t
06!
0|
0>!
0&!
0#!
08!
1i
0@!
1~
0(!
0n
0f
0j
00!
1q
0y
1h
1v
07!
1u
0e
0I
1}
0?!
0N
0'!
1>
0/!
0m
0D!
12!
1p
0x
1$!
1:!
0,!
1z
0"!
04!
1B!
0h
0r
0<!
1*!
b1101 7
b111100110 :
1C
0X
0Q
1I
1W
0H
0]
1N
1\
0M
0L
0>
0b
b1101 .
0S
1a
1R
0)!
0!!
b1101 -
b11110010 7
b11110 :
0[
1Q
0$!
09
1"!
0`
0V
1L
b11110010 .
0*!
01!
08
1)!
09!
1!!
0N
0A!
1M
b11110010 -
0R
02!
1$!
0:!
0"!
0B!
1*!
b11101010 7
b1110 :
0Q
0W
1N
0\
0M
b11101010 .
0a
1R
b11101010 -
0)!
b10010 7
b11110 :
1Q
b10010 .
0*!
b10010 -
1)!
0R
1*!
b10 7
b10 .
1R
b10 -
b10010 7
b10010 .
b10010 -
#5500000000
b10101010 "
b10101010 !
b10101010 *
b10 )
b10 /
b10101010 4
0;
1^
1T
b10 E!
0E
b10 2
0s
1-!
0c
1=!
0i
1@!
b10 (
1f
10!
0v
0u
1e
1?!
b10 '
0?
1/!
12!
1x
1B!
1h
0z
b11100 :
0I
1W
1H
1>
0B
1a
0o
b10110111 7
b10100 :
b10110111 .
0L
0p
0C
b10110111 -
0!!
0$!
1"!
b10110101 7
0N
b10110101 .
1M
b10110101 -
b10111101 7
b100 :
b10111101 .
0Q
b10111101 -
0)!
0*!
0R
b10101101 7
b10101101 .
b10101101 -
b1010101 $
b1010101 #
b1010101 +
b1010101 0
b0 )
b0 /
b1010101 3
b0 E!
b1010101 5
1P
1F
b0 2
0A
1Z
0l
b0 (
1t
16!
1&!
18!
1(!
b0 '
1n
0q
1v
17!
1u
0D
1'!
1m
1p
0x
1:!
1*!
1z
b0 :
1C
1I
0G
0H
1\
1R
0w
b11111011 7
b1000 :
b11111011 .
0z
1L
1x
b11111011 -
1H
1!!
0I
1$!
0"!
b11111111 7
b0 :
1N
b11111111 .
0M
0L
b11111111 -
0!!
b11110111 7
b10000 :
1"!
1Q
0$!
b11110111 .
0N
b11110111 -
1)!
1M
b11111111 7
0*!
1,!
b0 :
b11111111 .
1S
0Q
0R
b11111111 -
0)!
b11101111 7
b100000 :
b11101111 .
1V
1*!
0,!
11!
0S
b11101111 -
1R
14!
02!
b11111111 7
b0 :
b11111111 .
0V
1X
0W
01!
b11111111 -
b11011111 7
b1000000 :
b11011111 .
1[
04!
12!
19!
1W
b11011111 -
0X
1<!
0:!
b11111111 7
b0 :
b11111111 .
0\
1]
0[
09!
b11111111 -
b10111111 7
b10000000 :
b10111111 .
1`
0<!
1:!
1A!
1\
b10111111 -
0]
1D!
0B!
b11111111 7
b0 :
1b
b11111111 .
0`
0a
0A!
b11111111 -
b1111111 7
b100000000 :
19
b1111111 .
0D!
1B!
0b
18
b1111111 -
1a
b11111111 7
b0 :
09
b11111111 .
08
b11111111 -
#6500000000
b100 &
b100 %
b10 1
b1010101 2
b11111111 E!
b1010101 (
b1010101 '
#7500000000
b1111011 "
b1111011 !
b1111011 *
b1010001 )
b1010001 /
b1111011 4
0^
1Y
1O
1;
15!
1c
0=!
1%!
08!
1+!
1i
0@!
0(!
0f
1;!
07!
0e
0?!
1]
0'!
1?
1S
0:!
0B!
0h
0*!
b10100010 :
1`
0\
1V
0>
1B
0a
0R
1A!
1o
11!
b101110 7
02!
0p
14!
1B!
b101110 .
1r
0C
1X
0W
b101110 -
1D
1a
b101110 E!
b10001100 7
b11100110 :
b10001100 .
1[
1G
19!
1w
b10001100 -
1z
b10001100 E!
1:!
0x
1\
0H
1I
b11001000 7
b11101110 :
b11001000 .
1L
b11001000 -
1!!
0"!
b11001000 E!
1$!
1N
0M
b11000000 7
b11111110 :
b11000000 .
1Q
b11000000 -
1)!
b11000000 E!
1*!
1R
b11010000 7
b11010000 .
b11010000 -
b11010000 E!
b101101 $
b101101 #
b101101 +
b101101 0
b101001 )
b101001 /
b101101 2
b101101 3
b101101 (
b101101 5
0P
b101101 '
1U
1K
0Z
06!
1|
1.!
0&!
1#!
18!
0+!
0~
1(!
13!
00!
0;!
17!
0}
0]
1'!
0S
0/!
12!
0$!
0:!
1,!
1"!
04!
1<!
0*!
b1011110 :
1W
1]
0`
0\
0V
1M
1S
0R
0A!
01!
b10101000 7
b11111110 :
02!
1`
1V
0B!
b10101000 .
11!
0W
1A!
b10101000 -
0a
b10101000 E!
12!
1B!
b1000 7
b1000 .
1a
1W
b1000 -
b10101000 7
b10101000 .
b1000 E!
b10101000 -
b10101000 E!
