SimpleCPUv1a_amaranth/standardised_waveforms/ControlLogic.vcd
$comment Generated by Amaranth $end
$date 2025-05-10 19:23:08.409039 $end
$timescale 1 fs $end
$scope module bench $end
$scope module top $end
$var wire 1 ! rst $end
$var wire 1 " CLR $end
$var wire 4 # D $end
$var wire 4 $ D$3 $end
$var wire 1 % Z $end
$var wire 1 & Z$5 $end
$var wire 1 ' IR_EN $end
$var wire 1 ( IR_EN$7 $end
$var wire 1 ) ROM_EN $end
$var wire 1 * ROM_EN$9 $end
$var wire 1 + RAM_EN $end
$var wire 1 , RAM_EN$11 $end
$var wire 1 - RAM_WR $end
$var wire 1 . RAM_WR$13 $end
$var wire 1 / ADDR_SEL $end
$var wire 1 0 ADDR_SEL$15 $end
$var wire 1 1 DATA_SEL $end
$var wire 1 2 DATA_SEL$17 $end
$var wire 1 3 PC_EN $end
$var wire 1 4 PC_EN$19 $end
$var wire 1 5 PC_LD $end
$var wire 1 6 PC_LD$21 $end
$var wire 1 7 ACC_EN $end
$var wire 1 8 ACC_EN$23 $end
$var wire 3 9 ACC_CTL $end
$var wire 3 : ACC_CTL$25 $end
$scope module control $end
$var wire 1 ! rst $end
$var wire 4 # D $end
$var wire 1 % Z $end
$var wire 1 ( IR_EN $end
$var wire 1 * ROM_EN $end
$var wire 1 , RAM_EN $end
$var wire 1 . RAM_WR $end
$var wire 1 0 ADDR_SEL $end
$var wire 1 2 DATA_SEL $end
$var wire 1 4 PC_EN $end
$var wire 1 6 PC_LD $end
$var wire 1 8 ACC_EN $end
$var wire 3 : ACC_CTL $end
$var wire 4 ; A $end
$var wire 1 < SUB $end
$var wire 16 = Y $end
$var wire 1 > notZ $end
$var wire 3 ? Q $end
$var wire 1 @ OR_1 $end
$var wire 1 A OR_2 $end
$var wire 1 B OR_3 $end
$var wire 1 C AND_2 $end
$var wire 1 D AND_3 $end
$var wire 1 E OR_5 $end
$var wire 1 F notPC_LD $end
$var wire 1 G AND_7 $end
$var wire 1 H AND_8 $end
$scope module dec $end
$var wire 4 ; A $end
$var wire 16 = Y $end
$upscope $end
$scope module rc $end
$var wire 1 ! rst $end
$var wire 3 ? Q $end
$var wire 1 I D $end
$var wire 1 J D$2 $end
$var wire 1 K D$3 $end
$var wire 1 L Q$4 $end
$var wire 1 M Q$5 $end
$var wire 1 N Q$6 $end
$var wire 1 O clk $end
$scope module FDC1 $end
$var wire 1 ! rst $end
$var wire 1 J D $end
$var wire 1 M Q $end
$var wire 1 O clk $end
$upscope $end
$scope module FDC2 $end
$var wire 1 ! rst $end
$var wire 1 K D $end
$var wire 1 N Q $end
$var wire 1 O clk $end
$upscope $end
$scope module FDP $end
$var wire 1 ! rst $end
$var wire 1 I D $end
$var wire 1 L Q $end
$var wire 1 O clk $end
$upscope $end
$upscope $end
$upscope $end
$upscope $end
$upscope $end
$enddefinitions $end
#0
$dumpvars
1!
1"
b0 #
b0 $
0%
0&
1'
1(
1)
1*
0+
0,
0-
0.
0/
00
01
02
03
04
05
06
07
08
b100 9
b100 :
b0 ;
0<
b1 =
1>
b1 ?
0@
0A
0B
0C
0D
1E
1F
0G
0H
0I
1J
0K
1L
0M
0N
0O
$end
#500000000
1O
0"
0!
#1000000000
0O
#1500000000
1O
0L
1M
b10 ?
0*
1B
1@
1H
0(
0J
1K
14
0'
0)
13
#2000000000
0O
#2500000000
1O
1N
0M
b100 ?
1I
0K
18
0H
17
04
03
#3000000000
0O
#3500000000
1O
0N
1L
b1 ?
1*
0B
08
0@
0I
1(
1J
07
1'
1)
#4000000000
0O
#4500000000
1O
0L
1M
b10 ?
0*
1B
1@
1H
0(
0J
1K
14
0'
0)
13
#5000000000
0O
#5500000000
1O
1N
0M
b100 ?
1I
0K
18
0H
17
04
03
b1 $
b1 #
b1 ;
b10 =
b0 :
b0 9
#6000000000
0O
#6500000000
1O
0N
1L
b1 ?
1*
0B
08
0@
0I
1(
1J
07
1'
1)
#7000000000
0O
#7500000000
1O
0L
1M
b10 ?
0*
1B
1@
1H
0(
0J
1K
14
0'
0)
13
#8000000000
0O
#8500000000
1O
1N
0M
b100 ?
1I
0K
18
0H
17
04
03
b100 $
b100 #
b100 ;
b10000 =
12
b100 :
1A
1,
11
10
b100 9
1+
1/
#9000000000
0O
#9500000000
1O
0N
1L
b1 ?
1*
0B
08
0@
0I
1(
1J
0,
07
1)
1'
00
0+
0/
#10000000000
0O
#10500000000
1O
0L
1M
b10 ?
0*
1B
1@
1H
0(
0J
1K
1,
14
0)
0'
10
1+
1/
13
#11000000000
0O
#11500000000
1O
1N
0M
b100 ?
1I
0K
18
0H
17
04
03
b101 $
b101 #
b101 ;
b100000 =
02
1.
b0 :
0E
1-
01
08
b0 9
07
#12000000000
0O
#12500000000
1O
0N
1L
b1 ?
1*
0B
0@
0I
0.
1(
1J
0,
0-
1)
1'
00
0+
0/
#13000000000
0O
#13500000000
1O
0L
1M
b10 ?
0*
1B
1@
1H
0(
0J
1K
1,
14
0)
0'
10
1+
1/
13
#14000000000
0O
#14500000000
1O
1N
0M
b100 ?
1I
0K
1.
0H
1-
04
03
b1001 $
b1001 #
b1001 ;
b1000000000 =
0.
0A
0,
0-
00
0+
0/
1&
1%
0>
1C
16
15
0F
1G
14
13
#15000000000
0O
#15500000000
1O
0N
1L
b1 ?
1*
0B
0G
0@
0I
1(
1J
04
1'
1)
03
#16000000000
0O
#16500000000
1O
0L
1M
b10 ?
0*
1B
1@
0(
0J
1K
0'
0)
#17000000000
0O
#17500000000
1O
1N
0M
b100 ?
1I
0K
1G
14
13
0&
0%
1>
0C
06
05
1F
0G
04
03
#18000000000
0O
#18500000000
1O
0N
1L
b1 ?
1*
0B
0@
0I
1(
1J
1'
1)
#19000000000
0O
#19500000000
1O
0L
1M
b10 ?
0*
1B
1@
1H
0(
0J
1K
14
0'
0)
13
#20000000000
0O
#20500000000
1O
1N
0M
b100 ?
1I
0K
0H
04
03
