SimpleCPUv1a_amaranth/standardised_waveforms/Counter8.vcd
$comment Generated by Amaranth $end
$date 2025-05-10 19:12:51.378589 $end
$timescale 1 fs $end
$scope module bench $end
$scope module top $end
$var wire 1 ! rst $end
$var wire 1 " CLR $end
$var wire 8 # D $end
$var wire 8 $ D$3 $end
$var wire 1 % CE $end
$var wire 1 & CE$5 $end
$var wire 1 ' LD $end
$var wire 1 ( LD$7 $end
$var wire 8 ) Q $end
$var wire 8 * Q$9 $end
$scope module counter $end
$var wire 1 ! rst $end
$var wire 8 # D $end
$var wire 1 % CE$10 $end
$var wire 1 ' LD $end
$var wire 8 * Q $end
$var wire 1 + notLD $end
$var wire 8 , muxOut $end
$var wire 8 - A $end
$var wire 1 . Cin $end
$var wire 8 / D$7 $end
$var wire 8 0 S $end
$var wire 1 1 CE $end
$var wire 8 2 Q$11 $end
$scope module fullAdder8bit $end
$var wire 8 - A$3 $end
$var wire 1 . Cin $end
$var wire 8 0 S $end
$var wire 9 L carry $end
$var wire 1 M A $end
$var wire 1 N B $end
$var wire 8 O B$5 $end
$var wire 1 P Cin$6 $end
$var wire 1 Q S$8 $end
$var wire 1 R Cout $end
$var wire 1 S A$10 $end
$var wire 1 T B$11 $end
$var wire 1 U Cin$12 $end
$var wire 1 V S$13 $end
$var wire 1 W Cout$14 $end
$var wire 1 X A$15 $end
$var wire 1 Y B$16 $end
$var wire 1 Z Cin$17 $end
$var wire 1 [ S$18 $end
$var wire 1 \ Cout$19 $end
$var wire 1 ] A$20 $end
$var wire 1 ^ B$21 $end
$var wire 1 _ Cin$22 $end
$var wire 1 ` S$23 $end
$var wire 1 a Cout$24 $end
$var wire 1 b A$25 $end
$var wire 1 c B$26 $end
$var wire 1 d Cin$27 $end
$var wire 1 e S$28 $end
$var wire 1 f Cout$29 $end
$var wire 1 g A$30 $end
$var wire 1 h B$31 $end
$var wire 1 i Cin$32 $end
$var wire 1 j S$33 $end
$var wire 1 k Cout$34 $end
$var wire 1 l A$35 $end
$var wire 1 m B$36 $end
$var wire 1 n Cin$37 $end
$var wire 1 o S$38 $end
$var wire 1 p Cout$39 $end
$var wire 1 q A$40 $end
$var wire 1 r B$41 $end
$var wire 1 s Cin$42 $end
$var wire 1 t S$43 $end
$var wire 1 u Cout$44 $end
$var wire 1 v Cout$45 $end
$scope module fa0 $end
$var wire 1 M A$1 $end
$var wire 1 N B$3 $end
$var wire 1 P Cin $end
$var wire 1 Q S$8 $end
$var wire 1 R Cout $end
$var wire 1 w A $end
$var wire 1 x B $end
$var wire 1 y A$4 $end
$var wire 1 z S $end
$var wire 1 { B$6 $end
$var wire 1 | S$9 $end
$var wire 1 } Cout$11 $end
$var wire 1 ~ Cout$12 $end
$scope module ha1 $end
$var wire 1 w A $end
$var wire 1 x B $end
$var wire 1 z S $end
$var wire 1 } Cout $end
$upscope $end
$scope module ha2 $end
$var wire 1 y A $end
$var wire 1 { B $end
$var wire 1 | S $end
$var wire 1 ~ Cout $end
$upscope $end
$upscope $end
$scope module fa1 $end
$var wire 1 S A$1 $end
$var wire 1 T B$3 $end
$var wire 1 U Cin $end
$var wire 1 V S$8 $end
$var wire 1 W Cout $end
$var wire 1 !! A $end
$var wire 1 "! B $end
$var wire 1 #! A$4 $end
$var wire 1 $! S $end
$var wire 1 %! B$6 $end
$var wire 1 &! S$9 $end
$var wire 1 '! Cout$11 $end
$var wire 1 (! Cout$12 $end
$scope module ha1 $end
$var wire 1 !! A $end
$var wire 1 "! B $end
$var wire 1 $! S $end
$var wire 1 '! Cout $end
$upscope $end
$scope module ha2 $end
$var wire 1 #! A $end
$var wire 1 %! B $end
$var wire 1 &! S $end
$var wire 1 (! Cout $end
$upscope $end
$upscope $end
$scope module fa2 $end
$var wire 1 X A$1 $end
$var wire 1 Y B$3 $end
$var wire 1 Z Cin $end
$var wire 1 [ S$8 $end
$var wire 1 \ Cout $end
$var wire 1 )! A $end
$var wire 1 *! B $end
$var wire 1 +! A$4 $end
$var wire 1 ,! S $end
$var wire 1 -! B$6 $end
$var wire 1 .! S$9 $end
$var wire 1 /! Cout$11 $end
$var wire 1 0! Cout$12 $end
$scope module ha1 $end
$var wire 1 )! A $end
$var wire 1 *! B $end
$var wire 1 ,! S $end
$var wire 1 /! Cout $end
$upscope $end
$scope module ha2 $end
$var wire 1 +! A $end
$var wire 1 -! B $end
$var wire 1 .! S $end
$var wire 1 0! Cout $end
$upscope $end
$upscope $end
$scope module fa3 $end
$var wire 1 ] A$1 $end
$var wire 1 ^ B$3 $end
$var wire 1 _ Cin $end
$var wire 1 ` S$8 $end
$var wire 1 a Cout $end
$var wire 1 1! A $end
$var wire 1 2! B $end
$var wire 1 3! A$4 $end
$var wire 1 4! S $end
$var wire 1 5! B$6 $end
$var wire 1 6! S$9 $end
$var wire 1 7! Cout$11 $end
$var wire 1 8! Cout$12 $end
$scope module ha1 $end
$var wire 1 1! A $end
$var wire 1 2! B $end
$var wire 1 4! S $end
$var wire 1 7! Cout $end
$upscope $end
$scope module ha2 $end
$var wire 1 3! A $end
$var wire 1 5! B $end
$var wire 1 6! S $end
$var wire 1 8! Cout $end
$upscope $end
$upscope $end
$scope module fa4 $end
$var wire 1 b A$1 $end
$var wire 1 c B$3 $end
$var wire 1 d Cin $end
$var wire 1 e S$8 $end
$var wire 1 f Cout $end
$var wire 1 9! A $end
$var wire 1 :! B $end
$var wire 1 ;! A$4 $end
$var wire 1 <! S $end
$var wire 1 =! B$6 $end
$var wire 1 >! S$9 $end
$var wire 1 ?! Cout$11 $end
$var wire 1 @! Cout$12 $end
$scope module ha1 $end
$var wire 1 9! A $end
$var wire 1 :! B $end
$var wire 1 <! S $end
$var wire 1 ?! Cout $end
$upscope $end
$scope module ha2 $end
$var wire 1 ;! A $end
$var wire 1 =! B $end
$var wire 1 >! S $end
$var wire 1 @! Cout $end
$upscope $end
$upscope $end
$scope module fa5 $end
$var wire 1 g A$1 $end
$var wire 1 h B$3 $end
$var wire 1 i Cin $end
$var wire 1 j S$8 $end
$var wire 1 k Cout $end
$var wire 1 A! A $end
$var wire 1 B! B $end
$var wire 1 C! A$4 $end
$var wire 1 D! S $end
$var wire 1 E! B$6 $end
$var wire 1 F! S$9 $end
$var wire 1 G! Cout$11 $end
$var wire 1 H! Cout$12 $end
$scope module ha1 $end
$var wire 1 A! A $end
$var wire 1 B! B $end
$var wire 1 D! S $end
$var wire 1 G! Cout $end
$upscope $end
$scope module ha2 $end
$var wire 1 C! A $end
$var wire 1 E! B $end
$var wire 1 F! S $end
$var wire 1 H! Cout $end
$upscope $end
$upscope $end
$scope module fa6 $end
$var wire 1 l A$1 $end
$var wire 1 m B$3 $end
$var wire 1 n Cin $end
$var wire 1 o S$8 $end
$var wire 1 p Cout $end
$var wire 1 I! A $end
$var wire 1 J! B $end
$var wire 1 K! A$4 $end
$var wire 1 L! S $end
$var wire 1 M! B$6 $end
$var wire 1 N! S$9 $end
$var wire 1 O! Cout$11 $end
$var wire 1 P! Cout$12 $end
$scope module ha1 $end
$var wire 1 I! A $end
$var wire 1 J! B $end
$var wire 1 L! S $end
$var wire 1 O! Cout $end
$upscope $end
$scope module ha2 $end
$var wire 1 K! A $end
$var wire 1 M! B $end
$var wire 1 N! S $end
$var wire 1 P! Cout $end
$upscope $end
$upscope $end
$scope module fa7 $end
$var wire 1 q A$1 $end
$var wire 1 r B$3 $end
$var wire 1 s Cin $end
$var wire 1 t S$8 $end
$var wire 1 u Cout $end
$var wire 1 Q! A $end
$var wire 1 R! B $end
$var wire 1 S! A$4 $end
$var wire 1 T! S $end
$var wire 1 U! B$6 $end
$var wire 1 V! S$9 $end
$var wire 1 W! Cout$11 $end
$var wire 1 X! Cout$12 $end
$scope module ha1 $end
$var wire 1 Q! A $end
$var wire 1 R! B $end
$var wire 1 T! S $end
$var wire 1 W! Cout $end
$upscope $end
$scope module ha2 $end
$var wire 1 S! A $end
$var wire 1 U! B $end
$var wire 1 V! S $end
$var wire 1 X! Cout $end
$upscope $end
$upscope $end
$upscope $end
$scope module register8bit $end
$var wire 1 ! rst $end
$var wire 8 / D$1 $end
$var wire 1 1 CE$3 $end
$var wire 8 2 Q $end
$var wire 1 3 D $end
$var wire 1 4 CE $end
$var wire 1 5 Q$5 $end
$var wire 1 6 D$6 $end
$var wire 1 7 CE$7 $end
$var wire 1 8 Q$8 $end
$var wire 1 9 D$9 $end
$var wire 1 : CE$10 $end
$var wire 1 ; Q$11 $end
$var wire 1 < D$12 $end
$var wire 1 = CE$13 $end
$var wire 1 > Q$14 $end
$var wire 1 ? D$15 $end
$var wire 1 @ CE$16 $end
$var wire 1 A Q$17 $end
$var wire 1 B D$18 $end
$var wire 1 C CE$19 $end
$var wire 1 D Q$20 $end
$var wire 1 E D$21 $end
$var wire 1 F CE$22 $end
$var wire 1 G Q$23 $end
$var wire 1 H D$24 $end
$var wire 1 I CE$25 $end
$var wire 1 J Q$26 $end
$var wire 1 K clk $end
$scope module U$0 $end
$var wire 1 ! rst $end
$var wire 1 3 D $end
$var wire 1 4 CE $end
$var wire 1 5 Q $end
$var wire 1 K clk $end
$upscope $end
$scope module U$1 $end
$var wire 1 ! rst $end
$var wire 1 6 D $end
$var wire 1 7 CE $end
$var wire 1 8 Q $end
$var wire 1 K clk $end
$upscope $end
$scope module U$2 $end
$var wire 1 ! rst $end
$var wire 1 9 D $end
$var wire 1 : CE $end
$var wire 1 ; Q $end
$var wire 1 K clk $end
$upscope $end
$scope module U$3 $end
$var wire 1 ! rst $end
$var wire 1 < D $end
$var wire 1 = CE $end
$var wire 1 > Q $end
$var wire 1 K clk $end
$upscope $end
$scope module U$4 $end
$var wire 1 ! rst $end
$var wire 1 ? D $end
$var wire 1 @ CE $end
$var wire 1 A Q $end
$var wire 1 K clk $end
$upscope $end
$scope module U$5 $end
$var wire 1 ! rst $end
$var wire 1 B D $end
$var wire 1 C CE $end
$var wire 1 D Q $end
$var wire 1 K clk $end
$upscope $end
$scope module U$6 $end
$var wire 1 ! rst $end
$var wire 1 E D $end
$var wire 1 F CE $end
$var wire 1 G Q $end
$var wire 1 K clk $end
$upscope $end
$scope module U$7 $end
$var wire 1 ! rst $end
$var wire 1 H D $end
$var wire 1 I CE $end
$var wire 1 J Q $end
$var wire 1 K clk $end
$upscope $end
$upscope $end
$upscope $end
$upscope $end
$upscope $end
$enddefinitions $end
#0
$dumpvars
0!
0"
b0 #
b0 $
1%
1&
0'
0(
b0 )
b0 *
1+
b0 ,
b0 -
1.
b1 /
b1 0
11
b0 2
13
14
05
06
17
08
09
1:
0;
0<
1=
0>
0?
1@
0A
0B
1C
0D
0E
1F
0G
0H
1I
0J
0K
b1 L
0M
0N
b0 O
1P
1Q
0R
0S
0T
0U
0V
0W
0X
0Y
0Z
0[
0\
0]
0^
0_
0`
0a
0b
0c
0d
0e
0f
0g
0h
0i
0j
0k
0l
0m
0n
0o
0p
0q
0r
0s
0t
0u
0v
0w
0x
0y
0z
1{
1|
0}
0~
0!!
0"!
0#!
0$!
0%!
0&!
0'!
0(!
0)!
0*!
0+!
0,!
0-!
0.!
0/!
00!
01!
02!
03!
04!
05!
06!
07!
08!
09!
0:!
0;!
0<!
0=!
0>!
0?!
0@!
0A!
0B!
0C!
0D!
0E!
0F!
0G!
0H!
0I!
0J!
0K!
0L!
0M!
0N!
0O!
0P!
0Q!
0R!
0S!
0T!
0U!
0V!
0W!
0X!
$end
#50000000
1K
15
b1 2
b1 *
b1 )
b1 ,
b1 -
1M
1w
1z
1y
0|
1~
0Q
1R
b11 L
b0 0
b0 /
1U
1%!
03
1&!
1V
b10 0
b10 /
16
#100000000
0K
#150000000
1K
18
05
b10 2
b10 *
b10 )
b10 ,
b10 -
1S
0M
0w
1!!
0z
1$!
1#!
0y
1|
1(!
0&!
0~
0V
1W
1Q
0R
b101 L
b1 0
b1 /
1Z
0U
06
0%!
1-!
13
0(!
1&!
1.!
1V
1[
0W
b1 L
b111 0
b111 /
0Z
0-!
19
16
0.!
0[
b11 0
b11 /
09
#200000000
0K
#250000000
1K
15
b11 2
b11 *
b11 )
b11 ,
b11 -
1M
1w
1z
1y
0|
1~
0Q
1R
b11 L
b10 0
b10 /
1U
1%!
03
1(!
0&!
0V
1W
b111 L
b0 0
b0 /
1Z
1-!
06
1.!
1[
b100 0
b100 /
19
b111 $
b111 #
1(
1'
0+
b111 ,
b111 -
0.
b110 L
1X
0P
1)!
0{
1,!
1|
0~
1+!
0R
0.!
1Q
10!
b100 L
0[
b101 0
1\
b1100 L
b101 /
b1 0
0U
1_
0%!
b1 /
13
0(!
09
15!
1&!
1V
0W
16!
b1000 L
b11 0
1`
b1011 0
b11 /
0Z
0-!
b1011 /
16
1.!
1<
00!
1[
0\
b0 L
b1111 0
0_
b1111 /
19
05!
06!
0`
b111 0
b111 /
0<
#300000000
0K
#350000000
1K
1;
b111 2
b111 *
b111 )
b0 $
b0 #
b0 ,
b0 -
0X
0S
0M
0w
0!!
0)!
0z
0,!
0$!
0#!
0+!
0y
0|
0&!
0.!
0V
0[
0Q
b0 0
b0 /
06
09
03
0(
0'
1+
b111 ,
b111 -
1.
b1 L
1X
1S
1M
1P
1w
1!!
1)!
1z
1{
1,!
1$!
1|
1+!
1y
1#!
1~
1Q
0|
1&!
1.!
1[
b1 0
0Q
1R
1V
b11 L
b1 /
b110 0
b110 /
13
1U
1%!
19
16
03
1(!
0&!
0V
1W
b111 L
b100 0
b100 /
1Z
1-!
06
0.!
10!
0[
1\
b1111 L
b0 0
1_
b0 /
09
15!
16!
1`
b1000 0
b1000 /
1<
#400000000
0K
#450000000
1K
08
0;
1>
05
b1000 2
b1000 *
b1000 )
b1000 ,
b1000 -
1]
0X
0S
0M
0w
0!!
0)!
11!
0z
14!
0,!
0$!
0#!
0+!
0y
13!
06!
0~
1|
0(!
00!
18!
1&!
1.!
1[
1a
0`
1Q
0R
0W
1V
0\
b10001 L
b111 0
0_
0Z
1d
b111 /
0U
0-!
05!
16
1=!
19
13
0%!
0<
16!
1>!
08!
0&!
0.!
0[
0a
1`
1e
0V
b1 L
b11001 0
0d
b11001 /
1?
06
0=!
09
1<
0>!
0e
b1001 0
b1001 /
0?
0&
0%
01
0=
0I
0@
07
0C
0:
0F
04
#500000000
0K
#550000000
1K
b1001 $
b1001 #
1(
1'
0+
b1001 ,
b1001 -
0.
b0 L
1M
0P
1w
1z
0{
0|
1y
1|
0Q
b1000 0
1Q
b1001 0
b1000 /
b1001 /
03
13
#600000000
0K
#650000000
1K
b0 $
b0 #
b0 ,
b0 -
0]
0M
0w
01!
0z
04!
0y
03!
0|
06!
0`
0Q
b0 0
b0 /
0<
03
1&
1%
11
1=
1I
1@
17
1C
1:
1F
14
0(
0'
1+
b1000 ,
b1000 -
1.
1]
b1 L
1P
11!
1{
14!
1|
13!
16!
1Q
b1 0
1`
b1001 0
b1 /
b1001 /
13
1<
#700000000
0K
#750000000
1K
15
b1001 2
b1001 *
b1001 )
b1001 ,
b1001 -
1M
1w
1z
1y
0|
1~
0Q
1R
b11 L
b1000 0
b1000 /
1U
1%!
03
1&!
1V
b1010 0
b1010 /
16
0&
0%
01
0=
0I
0@
07
0C
0:
0F
04
1"
1!
0>
05
b0 2
b0 *
b0 )
b0 ,
b0 -
0]
0M
0w
01!
0z
04!
0y
03!
1|
0~
06!
0`
1Q
0R
b1 L
b11 0
b11 /
0U
0%!
0<
13
0&!
0V
b1 0
b1 /
06
