SimpleCPUv1a_pyrtl/waveforms/Computer.vcd
$timescale 1ns $end
$scope module logic $end
$var wire 8 addr_probe addr_probe $end
$var wire 16 cpu_data_in cpu_data_in $end
$var wire 16 cpu_data_out cpu_data_out $end
$var wire 16 data_in_probe data_in_probe $end
$var wire 16 data_out_probe data_out_probe $end
$var wire 8 mem_addr mem_addr $end
$var wire 16 ram_data_out ram_data_out $end
$var wire 1 ram_en ram_en $end
$var wire 1 ram_wr ram_wr $end
$var wire 1 rom_en rom_en $end
$var wire 1 rst rst $end
$upscope $end
$enddefinitions $end
$dumpvars
b0 addr_probe
b101 cpu_data_in
b0 cpu_data_out
b101 data_in_probe
b0 data_out_probe
b0 mem_addr
b101 ram_data_out
b0 ram_en
b0 ram_wr
b0 rom_en
b1 rst
$end
#0
b0 addr_probe
b101 cpu_data_in
b0 cpu_data_out
b101 data_in_probe
b0 data_out_probe
b0 mem_addr
b101 ram_data_out
b0 ram_en
b0 ram_wr
b0 rom_en
b1 rst

#10
b0 addr_probe
b101 cpu_data_in
b0 cpu_data_out
b101 data_in_probe
b0 data_out_probe
b0 mem_addr
b101 ram_data_out
b0 ram_en
b0 ram_wr
b1 rom_en
b0 rst

#20
b0 addr_probe
b101 cpu_data_in
b0 cpu_data_out
b101 data_in_probe
b0 data_out_probe
b0 mem_addr
b101 ram_data_out
b0 ram_en
b0 ram_wr
b0 rom_en
b0 rst

#30
b1 addr_probe
b101000011111111 cpu_data_in
b0 cpu_data_out
b101000011111111 data_in_probe
b0 data_out_probe
b1 mem_addr
b101000011111111 ram_data_out
b0 ram_en
b0 ram_wr
b0 rom_en
b0 rst

#40
b1 addr_probe
b101000011111111 cpu_data_in
b101 cpu_data_out
b101000011111111 data_in_probe
b101 data_out_probe
b1 mem_addr
b101000011111111 ram_data_out
b0 ram_en
b0 ram_wr
b1 rom_en
b0 rst

#50
b11111111 addr_probe
b0 cpu_data_in
b101000000000101 cpu_data_out
b0 data_in_probe
b101000000000101 data_out_probe
b11111111 mem_addr
b0 ram_data_out
b1 ram_en
b0 ram_wr
b0 rom_en
b0 rst

#60
b11111111 addr_probe
b0 cpu_data_in
b101000000000101 cpu_data_out
b0 data_in_probe
b101000000000101 data_out_probe
b11111111 mem_addr
b0 ram_data_out
b1 ram_en
b1 ram_wr
b0 rom_en
b0 rst

#70
b10 addr_probe
b100 cpu_data_in
b101000000000101 cpu_data_out
b100 data_in_probe
b101000000000101 data_out_probe
b10 mem_addr
b100 ram_data_out
b0 ram_en
b0 ram_wr
b1 rom_en
b0 rst

#80
b10 addr_probe
b100 cpu_data_in
b101 cpu_data_out
b100 data_in_probe
b101 data_out_probe
b10 mem_addr
b100 ram_data_out
b0 ram_en
b0 ram_wr
b0 rom_en
b0 rst

#90
b11 addr_probe
b101000011111110 cpu_data_in
b101 cpu_data_out
b101000011111110 data_in_probe
b101 data_out_probe
b11 mem_addr
b101000011111110 ram_data_out
b0 ram_en
b0 ram_wr
b0 rom_en
b0 rst

#100
b11 addr_probe
b101000011111110 cpu_data_in
b100 cpu_data_out
b101000011111110 data_in_probe
b100 data_out_probe
b11 mem_addr
b101000011111110 ram_data_out
b0 ram_en
b0 ram_wr
b1 rom_en
b0 rst

#110
b11111110 addr_probe
b0 cpu_data_in
b101000000000100 cpu_data_out
b0 data_in_probe
b101000000000100 data_out_probe
b11111110 mem_addr
b0 ram_data_out
b1 ram_en
b0 ram_wr
b0 rom_en
b0 rst

#120
b11111110 addr_probe
b0 cpu_data_in
b101000000000100 cpu_data_out
b0 data_in_probe
b101000000000100 data_out_probe
b11111110 mem_addr
b0 ram_data_out
b1 ram_en
b1 ram_wr
b0 rom_en
b0 rst

#130
b100 addr_probe
b100000011111110 cpu_data_in
b101000000000100 cpu_data_out
b100000011111110 data_in_probe
b101000000000100 data_out_probe
b100 mem_addr
b100000011111110 ram_data_out
b0 ram_en
b0 ram_wr
b1 rom_en
b0 rst

#140
b11111110 addr_probe
b101000000000100 cpu_data_in
b100000000000100 cpu_data_out
b101000000000100 data_in_probe
b100000000000100 data_out_probe
b11111110 mem_addr
b101000000000100 ram_data_out
b1 ram_en
b0 ram_wr
b0 rom_en
b0 rst

#150
b11111110 addr_probe
b101000000000100 cpu_data_in
b100000000000100 cpu_data_out
b101000000000100 data_in_probe
b100000000000100 data_out_probe
b11111110 mem_addr
b101000000000100 ram_data_out
b1 ram_en
b0 ram_wr
b0 rom_en
b0 rst

#160
b101 addr_probe
b101000011111101 cpu_data_in
b100000000000100 cpu_data_out
b101000011111101 data_in_probe
b100000000000100 data_out_probe
b101 mem_addr
b101000011111101 ram_data_out
b0 ram_en
b0 ram_wr
b1 rom_en
b0 rst

#170
b11111101 addr_probe
b0 cpu_data_in
b101000000000100 cpu_data_out
b0 data_in_probe
b101000000000100 data_out_probe
b11111101 mem_addr
b0 ram_data_out
b1 ram_en
b0 ram_wr
b0 rom_en
b0 rst

#180
b11111101 addr_probe
b0 cpu_data_in
b101000000000100 cpu_data_out
b0 data_in_probe
b101000000000100 data_out_probe
b11111101 mem_addr
b0 ram_data_out
b1 ram_en
b1 ram_wr
b0 rom_en
b0 rst

#190
b110 addr_probe
b0 cpu_data_in
b101000000000100 cpu_data_out
b0 data_in_probe
b101000000000100 data_out_probe
b110 mem_addr
b0 ram_data_out
b0 ram_en
b0 ram_wr
b1 rom_en
b0 rst

#200
b110 addr_probe
b0 cpu_data_in
b100 cpu_data_out
b0 data_in_probe
b100 data_out_probe
b110 mem_addr
b0 ram_data_out
b0 ram_en
b0 ram_wr
b0 rom_en
b0 rst

#210
b111 addr_probe
b101000011111100 cpu_data_in
b100 cpu_data_out
b101000011111100 data_in_probe
b100 data_out_probe
b111 mem_addr
b101000011111100 ram_data_out
b0 ram_en
b0 ram_wr
b0 rom_en
b0 rst

#220
b111 addr_probe
b101000011111100 cpu_data_in
b0 cpu_data_out
b101000011111100 data_in_probe
b0 data_out_probe
b111 mem_addr
b101000011111100 ram_data_out
b0 ram_en
b0 ram_wr
b1 rom_en
b0 rst

#230
b11111100 addr_probe
b0 cpu_data_in
b101000000000000 cpu_data_out
b0 data_in_probe
b101000000000000 data_out_probe
b11111100 mem_addr
b0 ram_data_out
b1 ram_en
b0 ram_wr
b0 rom_en
b0 rst

#240
b11111100 addr_probe
b0 cpu_data_in
b101000000000000 cpu_data_out
b0 data_in_probe
b101000000000000 data_out_probe
b11111100 mem_addr
b0 ram_data_out
b1 ram_en
b1 ram_wr
b0 rom_en
b0 rst

#250
b1000 addr_probe
b100000011111100 cpu_data_in
b101000000000000 cpu_data_out
b100000011111100 data_in_probe
b101000000000000 data_out_probe
b1000 mem_addr
b100000011111100 ram_data_out
b0 ram_en
b0 ram_wr
b1 rom_en
b0 rst

#260
b11111100 addr_probe
b101000000000000 cpu_data_in
b100000000000000 cpu_data_out
b101000000000000 data_in_probe
b100000000000000 data_out_probe
b11111100 mem_addr
b101000000000000 ram_data_out
b1 ram_en
b0 ram_wr
b0 rom_en
b0 rst

#270
b11111100 addr_probe
b101000000000000 cpu_data_in
b100000000000000 cpu_data_out
b101000000000000 data_in_probe
b100000000000000 data_out_probe
b11111100 mem_addr
b101000000000000 ram_data_out
b1 ram_en
b0 ram_wr
b0 rom_en
b0 rst

#280
b1001 addr_probe
b110000011111111 cpu_data_in
b100000000000000 cpu_data_out
b110000011111111 data_in_probe
b100000000000000 data_out_probe
b1001 mem_addr
b110000011111111 ram_data_out
b0 ram_en
b0 ram_wr
b1 rom_en
b0 rst

#290
b11111111 addr_probe
b101000000000101 cpu_data_in
b110000000000000 cpu_data_out
b101000000000101 data_in_probe
b110000000000000 data_out_probe
b11111111 mem_addr
b101000000000101 ram_data_out
b1 ram_en
b0 ram_wr
b0 rom_en
b0 rst

#300
b11111111 addr_probe
b101000000000101 cpu_data_in
b110000000000000 cpu_data_out
b101000000000101 data_in_probe
b110000000000000 data_out_probe
b11111111 mem_addr
b101000000000101 ram_data_out
b1 ram_en
b0 ram_wr
b0 rom_en
b0 rst

#310
b1010 addr_probe
b0 cpu_data_in
b110000000000101 cpu_data_out
b0 data_in_probe
b110000000000101 data_out_probe
b1010 mem_addr
b0 ram_data_out
b0 ram_en
b0 ram_wr
b1 rom_en
b0 rst

#320
b1010 addr_probe
b0 cpu_data_in
b101 cpu_data_out
b0 data_in_probe
b101 data_out_probe
b1010 mem_addr
b0 ram_data_out
b0 ram_en
b0 ram_wr
b0 rom_en
b0 rst

#330
b1011 addr_probe
b0 cpu_data_in
b101 cpu_data_out
b0 data_in_probe
b101 data_out_probe
b1011 mem_addr
b0 ram_data_out
b0 ram_en
b0 ram_wr
b0 rom_en
b0 rst

#340
b1011 addr_probe
b0 cpu_data_in
b0 cpu_data_out
b0 data_in_probe
b0 data_out_probe
b1011 mem_addr
b0 ram_data_out
b0 ram_en
b0 ram_wr
b1 rom_en
b0 rst

#350
b1011 addr_probe
b0 cpu_data_in
b0 cpu_data_out
b0 data_in_probe
b0 data_out_probe
b1011 mem_addr
b0 ram_data_out
b0 ram_en
b0 ram_wr
b0 rom_en
b0 rst

#360
b1100 addr_probe
b0 cpu_data_in
b0 cpu_data_out
b0 data_in_probe
b0 data_out_probe
b1100 mem_addr
b0 ram_data_out
b0 ram_en
b0 ram_wr
b0 rom_en
b0 rst

#370
b1100 addr_probe
b0 cpu_data_in
b0 cpu_data_out
b0 data_in_probe
b0 data_out_probe
b1100 mem_addr
b0 ram_data_out
b0 ram_en
b0 ram_wr
b1 rom_en
b0 rst

#380
b1100 addr_probe
b0 cpu_data_in
b0 cpu_data_out
b0 data_in_probe
b0 data_out_probe
b1100 mem_addr
b0 ram_data_out
b0 ram_en
b0 ram_wr
b0 rom_en
b0 rst

#390
b1101 addr_probe
b0 cpu_data_in
b0 cpu_data_out
b0 data_in_probe
b0 data_out_probe
b1101 mem_addr
b0 ram_data_out
b0 ram_en
b0 ram_wr
b0 rom_en
b0 rst

#400
b1101 addr_probe
b0 cpu_data_in
b0 cpu_data_out
b0 data_in_probe
b0 data_out_probe
b1101 mem_addr
b0 ram_data_out
b0 ram_en
b0 ram_wr
b1 rom_en
b0 rst

#410
b1101 addr_probe
b0 cpu_data_in
b0 cpu_data_out
b0 data_in_probe
b0 data_out_probe
b1101 mem_addr
b0 ram_data_out
b0 ram_en
b0 ram_wr
b0 rom_en
b0 rst

#420
b1110 addr_probe
b0 cpu_data_in
b0 cpu_data_out
b0 data_in_probe
b0 data_out_probe
b1110 mem_addr
b0 ram_data_out
b0 ram_en
b0 ram_wr
b0 rom_en
b0 rst

#430
b1110 addr_probe
b0 cpu_data_in
b0 cpu_data_out
b0 data_in_probe
b0 data_out_probe
b1110 mem_addr
b0 ram_data_out
b0 ram_en
b0 ram_wr
b1 rom_en
b0 rst

#440
b1110 addr_probe
b0 cpu_data_in
b0 cpu_data_out
b0 data_in_probe
b0 data_out_probe
b1110 mem_addr
b0 ram_data_out
b0 ram_en
b0 ram_wr
b0 rom_en
b0 rst

#450
b1111 addr_probe
b0 cpu_data_in
b0 cpu_data_out
b0 data_in_probe
b0 data_out_probe
b1111 mem_addr
b0 ram_data_out
b0 ram_en
b0 ram_wr
b0 rom_en
b0 rst

#460
b1111 addr_probe
b0 cpu_data_in
b0 cpu_data_out
b0 data_in_probe
b0 data_out_probe
b1111 mem_addr
b0 ram_data_out
b0 ram_en
b0 ram_wr
b1 rom_en
b0 rst

#470
b1111 addr_probe
b0 cpu_data_in
b0 cpu_data_out
b0 data_in_probe
b0 data_out_probe
b1111 mem_addr
b0 ram_data_out
b0 ram_en
b0 ram_wr
b0 rom_en
b0 rst

#480
b10000 addr_probe
b101000011111100 cpu_data_in
b0 cpu_data_out
b101000011111100 data_in_probe
b0 data_out_probe
b10000 mem_addr
b101000011111100 ram_data_out
b0 ram_en
b0 ram_wr
b0 rom_en
b0 rst

#490
b10000 addr_probe
b101000011111100 cpu_data_in
b0 cpu_data_out
b101000011111100 data_in_probe
b0 data_out_probe
b10000 mem_addr
b101000011111100 ram_data_out
b0 ram_en
b0 ram_wr
b1 rom_en
b0 rst

#500
b11111100 addr_probe
b101000000000000 cpu_data_in
b101000000000000 cpu_data_out
b101000000000000 data_in_probe
b101000000000000 data_out_probe
b11111100 mem_addr
b101000000000000 ram_data_out
b1 ram_en
b0 ram_wr
b0 rom_en
b0 rst

#510
b11111100 addr_probe
b0 cpu_data_in
b101000000000000 cpu_data_out
b0 data_in_probe
b101000000000000 data_out_probe
b11111100 mem_addr
b0 ram_data_out
b1 ram_en
b1 ram_wr
b0 rom_en
b0 rst

#520
b10001 addr_probe
b100000011111101 cpu_data_in
b101000000000000 cpu_data_out
b100000011111101 data_in_probe
b101000000000000 data_out_probe
b10001 mem_addr
b100000011111101 ram_data_out
b0 ram_en
b0 ram_wr
b1 rom_en
b0 rst

#530
b11111101 addr_probe
b101000000000100 cpu_data_in
b100000000000000 cpu_data_out
b101000000000100 data_in_probe
b100000000000000 data_out_probe
b11111101 mem_addr
b101000000000100 ram_data_out
b1 ram_en
b0 ram_wr
b0 rom_en
b0 rst

#540
b11111101 addr_probe
b101000000000100 cpu_data_in
b100000000000000 cpu_data_out
b101000000000100 data_in_probe
b100000000000000 data_out_probe
b11111101 mem_addr
b101000000000100 ram_data_out
b1 ram_en
b0 ram_wr
b0 rom_en
b0 rst

#550
b10010 addr_probe
b10000000000001 cpu_data_in
b100000000000100 cpu_data_out
b10000000000001 data_in_probe
b100000000000100 data_out_probe
b10010 mem_addr
b10000000000001 ram_data_out
b0 ram_en
b0 ram_wr
b1 rom_en
b0 rst

#560
b10010 addr_probe
b10000000000001 cpu_data_in
b10000000000100 cpu_data_out
b10000000000001 data_in_probe
b10000000000100 data_out_probe
b10010 mem_addr
b10000000000001 ram_data_out
b0 ram_en
b0 ram_wr
b0 rom_en
b0 rst

#570
b10011 addr_probe
b1001000000010000 cpu_data_in
b10000000000100 cpu_data_out
b1001000000010000 data_in_probe
b10000000000100 data_out_probe
b10011 mem_addr
b1001000000010000 ram_data_out
b0 ram_en
b0 ram_wr
b0 rom_en
b0 rst

#580
b10011 addr_probe
b1001000000010000 cpu_data_in
b10000000000011 cpu_data_out
b1001000000010000 data_in_probe
b10000000000011 data_out_probe
b10011 mem_addr
b1001000000010000 ram_data_out
b0 ram_en
b0 ram_wr
b1 rom_en
b0 rst

#590
b10011 addr_probe
b1001000000010000 cpu_data_in
b1001000000000011 cpu_data_out
b1001000000010000 data_in_probe
b1001000000000011 data_out_probe
b10011 mem_addr
b1001000000010000 ram_data_out
b0 ram_en
b0 ram_wr
b0 rom_en
b0 rst

#600
b10100 addr_probe
b101000011111101 cpu_data_in
b1001000000000011 cpu_data_out
b101000011111101 data_in_probe
b1001000000000011 data_out_probe
b10100 mem_addr
b101000011111101 ram_data_out
b0 ram_en
b0 ram_wr
b0 rom_en
b0 rst

#610
b10100 addr_probe
b101000011111101 cpu_data_in
b1001000000000011 cpu_data_out
b101000011111101 data_in_probe
b1001000000000011 data_out_probe
b10100 mem_addr
b101000011111101 ram_data_out
b0 ram_en
b0 ram_wr
b1 rom_en
b0 rst

#620
b11111101 addr_probe
b101000000000100 cpu_data_in
b101000000000011 cpu_data_out
b101000000000100 data_in_probe
b101000000000011 data_out_probe
b11111101 mem_addr
b101000000000100 ram_data_out
b1 ram_en
b0 ram_wr
b0 rom_en
b0 rst

#630
b11111101 addr_probe
b0 cpu_data_in
b101000000000011 cpu_data_out
b0 data_in_probe
b101000000000011 data_out_probe
b11111101 mem_addr
b0 ram_data_out
b1 ram_en
b1 ram_wr
b0 rom_en
b0 rst

#640
b10101 addr_probe
b1000000000001000 cpu_data_in
b101000000000011 cpu_data_out
b1000000000001000 data_in_probe
b101000000000011 data_out_probe
b10101 mem_addr
b1000000000001000 ram_data_out
b0 ram_en
b0 ram_wr
b1 rom_en
b0 rst

#650
b10101 addr_probe
b1000000000001000 cpu_data_in
b1000000000000011 cpu_data_out
b1000000000001000 data_in_probe
b1000000000000011 data_out_probe
b10101 mem_addr
b1000000000001000 ram_data_out
b0 ram_en
b0 ram_wr
b0 rom_en
b0 rst

#660
b10101 addr_probe
b1000000000001000 cpu_data_in
b1000000000000011 cpu_data_out
b1000000000001000 data_in_probe
b1000000000000011 data_out_probe
b10101 mem_addr
b1000000000001000 ram_data_out
b0 ram_en
b0 ram_wr
b0 rom_en
b0 rst

#670
b1000 addr_probe
b100000011111100 cpu_data_in
b1000000000000011 cpu_data_out
b100000011111100 data_in_probe
b1000000000000011 data_out_probe
b1000 mem_addr
b100000011111100 ram_data_out
b0 ram_en
b0 ram_wr
b1 rom_en
b0 rst

#680
b11111100 addr_probe
b101000000000000 cpu_data_in
b100000000000011 cpu_data_out
b101000000000000 data_in_probe
b100000000000011 data_out_probe
b11111100 mem_addr
b101000000000000 ram_data_out
b1 ram_en
b0 ram_wr
b0 rom_en
b0 rst

#690
b11111100 addr_probe
b101000000000000 cpu_data_in
b100000000000011 cpu_data_out
b101000000000000 data_in_probe
b100000000000011 data_out_probe
b11111100 mem_addr
b101000000000000 ram_data_out
b1 ram_en
b0 ram_wr
b0 rom_en
b0 rst

#700
b1001 addr_probe
b110000011111111 cpu_data_in
b100000000000000 cpu_data_out
b110000011111111 data_in_probe
b100000000000000 data_out_probe
b1001 mem_addr
b110000011111111 ram_data_out
b0 ram_en
b0 ram_wr
b1 rom_en
b0 rst

#710
b11111111 addr_probe
b101000000000101 cpu_data_in
b110000000000000 cpu_data_out
b101000000000101 data_in_probe
b110000000000000 data_out_probe
b11111111 mem_addr
b101000000000101 ram_data_out
b1 ram_en
b0 ram_wr
b0 rom_en
b0 rst

#720
b11111111 addr_probe
b101000000000101 cpu_data_in
b110000000000000 cpu_data_out
b101000000000101 data_in_probe
b110000000000000 data_out_probe
b11111111 mem_addr
b101000000000101 ram_data_out
b1 ram_en
b0 ram_wr
b0 rom_en
b0 rst

#730
b1010 addr_probe
b0 cpu_data_in
b110000000000101 cpu_data_out
b0 data_in_probe
b110000000000101 data_out_probe
b1010 mem_addr
b0 ram_data_out
b0 ram_en
b0 ram_wr
b1 rom_en
b0 rst

#740
b1010 addr_probe
b0 cpu_data_in
b101 cpu_data_out
b0 data_in_probe
b101 data_out_probe
b1010 mem_addr
b0 ram_data_out
b0 ram_en
b0 ram_wr
b0 rom_en
b0 rst

#750
b1011 addr_probe
b0 cpu_data_in
b101 cpu_data_out
b0 data_in_probe
b101 data_out_probe
b1011 mem_addr
b0 ram_data_out
b0 ram_en
b0 ram_wr
b0 rom_en
b0 rst

#760
b1011 addr_probe
b0 cpu_data_in
b0 cpu_data_out
b0 data_in_probe
b0 data_out_probe
b1011 mem_addr
b0 ram_data_out
b0 ram_en
b0 ram_wr
b1 rom_en
b0 rst

#770
b1011 addr_probe
b0 cpu_data_in
b0 cpu_data_out
b0 data_in_probe
b0 data_out_probe
b1011 mem_addr
b0 ram_data_out
b0 ram_en
b0 ram_wr
b0 rom_en
b0 rst

#780
b1100 addr_probe
b0 cpu_data_in
b0 cpu_data_out
b0 data_in_probe
b0 data_out_probe
b1100 mem_addr
b0 ram_data_out
b0 ram_en
b0 ram_wr
b0 rom_en
b0 rst

#790
b1100 addr_probe
b0 cpu_data_in
b0 cpu_data_out
b0 data_in_probe
b0 data_out_probe
b1100 mem_addr
b0 ram_data_out
b0 ram_en
b0 ram_wr
b1 rom_en
b0 rst

#800
b1100 addr_probe
b0 cpu_data_in
b0 cpu_data_out
b0 data_in_probe
b0 data_out_probe
b1100 mem_addr
b0 ram_data_out
b0 ram_en
b0 ram_wr
b0 rom_en
b0 rst

#810
b1101 addr_probe
b0 cpu_data_in
b0 cpu_data_out
b0 data_in_probe
b0 data_out_probe
b1101 mem_addr
b0 ram_data_out
b0 ram_en
b0 ram_wr
b0 rom_en
b0 rst

#820
b1101 addr_probe
b0 cpu_data_in
b0 cpu_data_out
b0 data_in_probe
b0 data_out_probe
b1101 mem_addr
b0 ram_data_out
b0 ram_en
b0 ram_wr
b1 rom_en
b0 rst

#830
b1101 addr_probe
b0 cpu_data_in
b0 cpu_data_out
b0 data_in_probe
b0 data_out_probe
b1101 mem_addr
b0 ram_data_out
b0 ram_en
b0 ram_wr
b0 rom_en
b0 rst

#840
b1110 addr_probe
b0 cpu_data_in
b0 cpu_data_out
b0 data_in_probe
b0 data_out_probe
b1110 mem_addr
b0 ram_data_out
b0 ram_en
b0 ram_wr
b0 rom_en
b0 rst

#850
b1110 addr_probe
b0 cpu_data_in
b0 cpu_data_out
b0 data_in_probe
b0 data_out_probe
b1110 mem_addr
b0 ram_data_out
b0 ram_en
b0 ram_wr
b1 rom_en
b0 rst

#860
b1110 addr_probe
b0 cpu_data_in
b0 cpu_data_out
b0 data_in_probe
b0 data_out_probe
b1110 mem_addr
b0 ram_data_out
b0 ram_en
b0 ram_wr
b0 rom_en
b0 rst

#870
b1111 addr_probe
b0 cpu_data_in
b0 cpu_data_out
b0 data_in_probe
b0 data_out_probe
b1111 mem_addr
b0 ram_data_out
b0 ram_en
b0 ram_wr
b0 rom_en
b0 rst

#880
b1111 addr_probe
b0 cpu_data_in
b0 cpu_data_out
b0 data_in_probe
b0 data_out_probe
b1111 mem_addr
b0 ram_data_out
b0 ram_en
b0 ram_wr
b1 rom_en
b0 rst

#890
b1111 addr_probe
b0 cpu_data_in
b0 cpu_data_out
b0 data_in_probe
b0 data_out_probe
b1111 mem_addr
b0 ram_data_out
b0 ram_en
b0 ram_wr
b0 rom_en
b0 rst

#900
b10000 addr_probe
b101000011111100 cpu_data_in
b0 cpu_data_out
b101000011111100 data_in_probe
b0 data_out_probe
b10000 mem_addr
b101000011111100 ram_data_out
b0 ram_en
b0 ram_wr
b0 rom_en
b0 rst

#910
b10000 addr_probe
b101000011111100 cpu_data_in
b0 cpu_data_out
b101000011111100 data_in_probe
b0 data_out_probe
b10000 mem_addr
b101000011111100 ram_data_out
b0 ram_en
b0 ram_wr
b1 rom_en
b0 rst

#920
b11111100 addr_probe
b101000000000000 cpu_data_in
b101000000000000 cpu_data_out
b101000000000000 data_in_probe
b101000000000000 data_out_probe
b11111100 mem_addr
b101000000000000 ram_data_out
b1 ram_en
b0 ram_wr
b0 rom_en
b0 rst

#930
b11111100 addr_probe
b0 cpu_data_in
b101000000000000 cpu_data_out
b0 data_in_probe
b101000000000000 data_out_probe
b11111100 mem_addr
b0 ram_data_out
b1 ram_en
b1 ram_wr
b0 rom_en
b0 rst

#940
b10001 addr_probe
b100000011111101 cpu_data_in
b101000000000000 cpu_data_out
b100000011111101 data_in_probe
b101000000000000 data_out_probe
b10001 mem_addr
b100000011111101 ram_data_out
b0 ram_en
b0 ram_wr
b1 rom_en
b0 rst

#950
b11111101 addr_probe
b101000000000011 cpu_data_in
b100000000000000 cpu_data_out
b101000000000011 data_in_probe
b100000000000000 data_out_probe
b11111101 mem_addr
b101000000000011 ram_data_out
b1 ram_en
b0 ram_wr
b0 rom_en
b0 rst

#960
b11111101 addr_probe
b101000000000011 cpu_data_in
b100000000000000 cpu_data_out
b101000000000011 data_in_probe
b100000000000000 data_out_probe
b11111101 mem_addr
b101000000000011 ram_data_out
b1 ram_en
b0 ram_wr
b0 rom_en
b0 rst

#970
b10010 addr_probe
b10000000000001 cpu_data_in
b100000000000011 cpu_data_out
b10000000000001 data_in_probe
b100000000000011 data_out_probe
b10010 mem_addr
b10000000000001 ram_data_out
b0 ram_en
b0 ram_wr
b1 rom_en
b0 rst

#980
b10010 addr_probe
b10000000000001 cpu_data_in
b10000000000011 cpu_data_out
b10000000000001 data_in_probe
b10000000000011 data_out_probe
b10010 mem_addr
b10000000000001 ram_data_out
b0 ram_en
b0 ram_wr
b0 rom_en
b0 rst

#990
b10011 addr_probe
b1001000000010000 cpu_data_in
b10000000000011 cpu_data_out
b1001000000010000 data_in_probe
b10000000000011 data_out_probe
b10011 mem_addr
b1001000000010000 ram_data_out
b0 ram_en
b0 ram_wr
b0 rom_en
b0 rst

#1000
b10011 addr_probe
b1001000000010000 cpu_data_in
b10000000000010 cpu_data_out
b1001000000010000 data_in_probe
b10000000000010 data_out_probe
b10011 mem_addr
b1001000000010000 ram_data_out
b0 ram_en
b0 ram_wr
b1 rom_en
b0 rst

#1010
b10011 addr_probe
b1001000000010000 cpu_data_in
b1001000000000010 cpu_data_out
b1001000000010000 data_in_probe
b1001000000000010 data_out_probe
b10011 mem_addr
b1001000000010000 ram_data_out
b0 ram_en
b0 ram_wr
b0 rom_en
b0 rst

#1020
b10100 addr_probe
b101000011111101 cpu_data_in
b1001000000000010 cpu_data_out
b101000011111101 data_in_probe
b1001000000000010 data_out_probe
b10100 mem_addr
b101000011111101 ram_data_out
b0 ram_en
b0 ram_wr
b0 rom_en
b0 rst

#1030
b10100 addr_probe
b101000011111101 cpu_data_in
b1001000000000010 cpu_data_out
b101000011111101 data_in_probe
b1001000000000010 data_out_probe
b10100 mem_addr
b101000011111101 ram_data_out
b0 ram_en
b0 ram_wr
b1 rom_en
b0 rst

#1040
b11111101 addr_probe
b101000000000011 cpu_data_in
b101000000000010 cpu_data_out
b101000000000011 data_in_probe
b101000000000010 data_out_probe
b11111101 mem_addr
b101000000000011 ram_data_out
b1 ram_en
b0 ram_wr
b0 rom_en
b0 rst

#1050
b11111101 addr_probe
b0 cpu_data_in
b101000000000010 cpu_data_out
b0 data_in_probe
b101000000000010 data_out_probe
b11111101 mem_addr
b0 ram_data_out
b1 ram_en
b1 ram_wr
b0 rom_en
b0 rst

#1060
b10101 addr_probe
b1000000000001000 cpu_data_in
b101000000000010 cpu_data_out
b1000000000001000 data_in_probe
b101000000000010 data_out_probe
b10101 mem_addr
b1000000000001000 ram_data_out
b0 ram_en
b0 ram_wr
b1 rom_en
b0 rst

#1070
b10101 addr_probe
b1000000000001000 cpu_data_in
b1000000000000010 cpu_data_out
b1000000000001000 data_in_probe
b1000000000000010 data_out_probe
b10101 mem_addr
b1000000000001000 ram_data_out
b0 ram_en
b0 ram_wr
b0 rom_en
b0 rst

#1080
b10101 addr_probe
b1000000000001000 cpu_data_in
b1000000000000010 cpu_data_out
b1000000000001000 data_in_probe
b1000000000000010 data_out_probe
b10101 mem_addr
b1000000000001000 ram_data_out
b0 ram_en
b0 ram_wr
b0 rom_en
b0 rst

#1090
b1000 addr_probe
b100000011111100 cpu_data_in
b1000000000000010 cpu_data_out
b100000011111100 data_in_probe
b1000000000000010 data_out_probe
b1000 mem_addr
b100000011111100 ram_data_out
b0 ram_en
b0 ram_wr
b1 rom_en
b0 rst

#1100
b11111100 addr_probe
b101000000000000 cpu_data_in
b100000000000010 cpu_data_out
b101000000000000 data_in_probe
b100000000000010 data_out_probe
b11111100 mem_addr
b101000000000000 ram_data_out
b1 ram_en
b0 ram_wr
b0 rom_en
b0 rst

#1110
b11111100 addr_probe
b101000000000000 cpu_data_in
b100000000000010 cpu_data_out
b101000000000000 data_in_probe
b100000000000010 data_out_probe
b11111100 mem_addr
b101000000000000 ram_data_out
b1 ram_en
b0 ram_wr
b0 rom_en
b0 rst

#1120
b1001 addr_probe
b110000011111111 cpu_data_in
b100000000000000 cpu_data_out
b110000011111111 data_in_probe
b100000000000000 data_out_probe
b1001 mem_addr
b110000011111111 ram_data_out
b0 ram_en
b0 ram_wr
b1 rom_en
b0 rst

#1130
b11111111 addr_probe
b101000000000101 cpu_data_in
b110000000000000 cpu_data_out
b101000000000101 data_in_probe
b110000000000000 data_out_probe
b11111111 mem_addr
b101000000000101 ram_data_out
b1 ram_en
b0 ram_wr
b0 rom_en
b0 rst

#1140
b11111111 addr_probe
b101000000000101 cpu_data_in
b110000000000000 cpu_data_out
b101000000000101 data_in_probe
b110000000000000 data_out_probe
b11111111 mem_addr
b101000000000101 ram_data_out
b1 ram_en
b0 ram_wr
b0 rom_en
b0 rst

#1150
b1010 addr_probe
b0 cpu_data_in
b110000000000101 cpu_data_out
b0 data_in_probe
b110000000000101 data_out_probe
b1010 mem_addr
b0 ram_data_out
b0 ram_en
b0 ram_wr
b1 rom_en
b0 rst

#1160
b1010 addr_probe
b0 cpu_data_in
b101 cpu_data_out
b0 data_in_probe
b101 data_out_probe
b1010 mem_addr
b0 ram_data_out
b0 ram_en
b0 ram_wr
b0 rom_en
b0 rst

#1170
b1011 addr_probe
b0 cpu_data_in
b101 cpu_data_out
b0 data_in_probe
b101 data_out_probe
b1011 mem_addr
b0 ram_data_out
b0 ram_en
b0 ram_wr
b0 rom_en
b0 rst

#1180
b1011 addr_probe
b0 cpu_data_in
b0 cpu_data_out
b0 data_in_probe
b0 data_out_probe
b1011 mem_addr
b0 ram_data_out
b0 ram_en
b0 ram_wr
b1 rom_en
b0 rst

#1190
b1011 addr_probe
b0 cpu_data_in
b0 cpu_data_out
b0 data_in_probe
b0 data_out_probe
b1011 mem_addr
b0 ram_data_out
b0 ram_en
b0 ram_wr
b0 rom_en
b0 rst

#1200
b1100 addr_probe
b0 cpu_data_in
b0 cpu_data_out
b0 data_in_probe
b0 data_out_probe
b1100 mem_addr
b0 ram_data_out
b0 ram_en
b0 ram_wr
b0 rom_en
b0 rst

#1210
b1100 addr_probe
b0 cpu_data_in
b0 cpu_data_out
b0 data_in_probe
b0 data_out_probe
b1100 mem_addr
b0 ram_data_out
b0 ram_en
b0 ram_wr
b1 rom_en
b0 rst

#1220
b1100 addr_probe
b0 cpu_data_in
b0 cpu_data_out
b0 data_in_probe
b0 data_out_probe
b1100 mem_addr
b0 ram_data_out
b0 ram_en
b0 ram_wr
b0 rom_en
b0 rst

#1230
b1101 addr_probe
b0 cpu_data_in
b0 cpu_data_out
b0 data_in_probe
b0 data_out_probe
b1101 mem_addr
b0 ram_data_out
b0 ram_en
b0 ram_wr
b0 rom_en
b0 rst

