SimpleCPUv1a_pymtl/standardised_waveforms/ControlLogic.vcd
$date
  Sat May 10 20:12:52 2025
$end
$version
  PyMTL 3 (Mamba)
$end
$timescale
 10ps
$end

$scope module top $end
  $var reg 16 ( y $end
  $var reg 1 + PC_EN $end
  $var reg 1 , or_2 $end
  $var reg 1 % reset $end
  $var reg 1 & CLR $end
  $var reg 1 - and_7 $end
  $var reg 1 * IR_EN $end
  $var reg 1 . or_3 $end
  $var reg 3 / ACC_CTL $end
  $var reg 1 * ROM_EN $end
  $var reg 1 0 and_8 $end
  $var reg 1 1 notZ $end
  $var reg 1 2 RAM_WR $end
  $var reg 4 ) D $end
  $var reg 1 3 ADDR_SEL $end
  $var reg 1 4 RAM_EN $end
  $var reg 1 5 ACC_EN $end
  $var reg 1 6 notPC_LD $end
  $var reg 1 7 sub $end
  $var reg 1 8 DATA_SEL $end
  $var reg 1 9 or_1 $end
  $var reg 1 : or_5 $end
  $var reg 1 ; PC_LD $end
  $var reg 3 # q $end
  $var reg 1 < and_3 $end
  $var reg 1 = and_2 $end
  $var reg 1 > Z $end
  $var reg 1 ! clk $end
  $scope module dec $end
    $var reg 16 ( Y $end
    $var reg 1 % reset $end
    $var reg 4 ) A $end
    $var reg 1 ! clk $end
  $upscope $end
  $scope module rc $end
    $var reg 1 ! clk $end
    $var reg 1 % reset $end
    $var reg 3 # Q $end
    $var reg 1 & CLR $end
    $scope module fdc2 $end
      $var reg 1 " Q $end
      $var reg 1 & CLR $end
      $var reg 1 ? reg $end
      $var reg 1 ' D $end
      $var reg 1 ! clk $end
      $var reg 1 % reset $end
    $upscope $end
    $scope module fdc1 $end
      $var reg 1 & CLR $end
      $var reg 1 ' Q $end
      $var reg 1 ! clk $end
      $var reg 1 $ D $end
      $var reg 1 @ reg $end
      $var reg 1 % reset $end
    $upscope $end
    $scope module fdp $end
      $var reg 1 ! clk $end
      $var reg 1 $ Q $end
      $var reg 1 A reg $end
      $var reg 1 % reset $end
      $var reg 1 & PRE $end
      $var reg 1 " D $end
    $upscope $end
  $upscope $end
$upscope $end
$enddefinitions $end

b0b0 !
b0b0 "
b0b000 #
b0b0 $
b0b0 %
b0b0 &
b0b0 '
b0b0000000000000000 (
b0b0000 )
b0b0 *
b0b0 +
b0b0 ,
b0b0 -
b0b0 .
b0b000 /
b0b0 0
b0b0 1
b0b0 2
b0b0 3
b0b0 4
b0b0 5
b0b0 6
b0b0 7
b0b0 8
b0b0 9
b0b0 :
b0b0 ;
b0b0 <
b0b0 =
b0b0 >
b0b0 ?
b0b0 @
b0b0 A

#0
b0b1 !

b0b000 #
b0b0 $
b0b1 %
b0b0000000000000001 (
b0b0000 )
b0b0 *
b0b100 /
b0b0 0
b0b1 1
b0b1 6
b0b1 :

#50
b0b0 !
#100
b0b1 !


#150
b0b0 !
#200
b0b1 !


#250
b0b0 !
#300
b0b1 !

b0b0 %
b0b1 &

#350
b0b0 !
#400
b0b1 !

b0b001 #
b0b1 $
b0b0 &
b0b1 *
b0b1 A

#450
b0b0 !
#500
b0b1 !

b0b010 #
b0b0 $
b0b1 '
b0b0 *
b0b1 +
b0b1 .
b0b1 0
b0b1 9
b0b1 @
b0b0 A

#550
b0b0 !
#600
b0b1 !

b0b1 "
b0b100 #
b0b0 '
b0b0 +
b0b0 0
b0b1 5
b0b1 ?
b0b0 @

#650
b0b0 !
#700
b0b1 !

b0b0 "
b0b001 #
b0b1 $
b0b1 *
b0b0 .
b0b0 5
b0b0 9
b0b0 ?
b0b1 A

#750
b0b0 !
#800
b0b1 !

b0b010 #
b0b0 $
b0b1 '
b0b0 *
b0b1 +
b0b1 .
b0b1 0
b0b1 9
b0b1 @
b0b0 A

#850
b0b0 !
#900
b0b1 !

b0b1 "
b0b100 #
b0b0 '
b0b0000000000000010 (
b0b0001 )
b0b0 +
b0b000 /
b0b0 0
b0b1 5
b0b1 ?
b0b0 @

#950
b0b0 !
#1000
b0b1 !

b0b0 "
b0b001 #
b0b1 $
b0b1 *
b0b0 .
b0b0 5
b0b0 9
b0b0 ?
b0b1 A

#1050
b0b0 !
#1100
b0b1 !

b0b010 #
b0b0 $
b0b1 '
b0b0 *
b0b1 +
b0b1 .
b0b1 0
b0b1 9
b0b1 @
b0b0 A

#1150
b0b0 !
#1200
b0b1 !

b0b1 "
b0b100 #
b0b0 '
b0b0000000000010000 (
b0b0100 )
b0b0 +
b0b1 ,
b0b100 /
b0b0 0
b0b1 3
b0b1 4
b0b1 5
b0b1 8
b0b1 ?
b0b0 @

#1250
b0b0 !
#1300
b0b1 !

b0b0 "
b0b001 #
b0b1 $
b0b1 *
b0b0 .
b0b0 3
b0b0 4
b0b0 5
b0b0 9
b0b0 ?
b0b1 A

#1350
b0b0 !
#1400
b0b1 !

b0b010 #
b0b0 $
b0b1 '
b0b0 *
b0b1 +
b0b1 .
b0b1 0
b0b1 3
b0b1 4
b0b1 9
b0b1 @
b0b0 A

#1450
b0b0 !
#1500
b0b1 !

b0b1 "
b0b100 #
b0b0 '
b0b0000000000100000 (
b0b0101 )
b0b0 +
b0b000 /
b0b0 0
b0b1 2
b0b0 8
b0b0 :
b0b1 ?
b0b0 @

#1550
b0b0 !
#1600
b0b1 !

b0b0 "
b0b001 #
b0b1 $
b0b1 *
b0b0 .
b0b0 2
b0b0 3
b0b0 4
b0b0 9
b0b0 ?
b0b1 A

#1650
b0b0 !
#1700
b0b1 !

b0b010 #
b0b0 $
b0b1 '
b0b0 *
b0b1 +
b0b1 .
b0b1 0
b0b1 3
b0b1 4
b0b1 9
b0b1 @
b0b0 A

#1750
b0b0 !
#1800
b0b1 !

b0b1 "
b0b100 #
b0b0 '
b0b0000001000000000 (
b0b1001 )
b0b0 ,
b0b1 -
b0b0 0
b0b0 1
b0b0 3
b0b0 4
b0b0 6
b0b1 ;
b0b1 =
b0b1 >
b0b1 ?
b0b0 @

#1850
b0b0 !
#1900
b0b1 !

b0b0 "
b0b001 #
b0b1 $
b0b1 *
b0b0 +
b0b0 -
b0b0 .
b0b0 9
b0b0 ?
b0b1 A

#1950
b0b0 !
#2000
b0b1 !

b0b010 #
b0b0 $
b0b1 '
b0b0 *
b0b1 .
b0b1 9
b0b1 @
b0b0 A

#2050
b0b0 !
#2100
b0b1 !

b0b1 "
b0b100 #
b0b0 '
b0b1 1
b0b1 6
b0b0 ;
b0b0 =
b0b0 >
b0b1 ?
b0b0 @

#2150
b0b0 !
#2200
b0b1 !

b0b0 "
b0b001 #
b0b1 $
b0b1 *
b0b0 .
b0b0 9
b0b0 ?
b0b1 A

#2250
b0b0 !
#2300
b0b1 !

b0b010 #
b0b0 $
b0b1 '
b0b0 *
b0b1 +
b0b1 .
b0b1 0
b0b1 9
b0b1 @
b0b0 A

#2350
b0b0 !
#2400
b0b1 !

