SimpleCPUv1a_pymtl/standardised_waveforms/RingCounter3.vcd
$date
  Sat May 10 20:13:15 2025
$end
$version
  PyMTL 3 (Mamba)
$end
$timescale
 10ps
$end

$scope module top $end
  $var reg 1 # reset $end
  $var reg 1 $ clk $end
  $var reg 3 ' Q $end
  $var reg 1 " CLR $end
  $scope module fdc2 $end
    $var reg 1 % Q $end
    $var reg 1 ! D $end
    $var reg 1 # reset $end
    $var reg 1 " CLR $end
    $var reg 1 ( reg $end
    $var reg 1 $ clk $end
  $upscope $end
  $scope module fdp $end
    $var reg 1 % D $end
    $var reg 1 " PRE $end
    $var reg 1 ) reg $end
    $var reg 1 $ clk $end
    $var reg 1 # reset $end
    $var reg 1 & Q $end
  $upscope $end
  $scope module fdc1 $end
    $var reg 1 & D $end
    $var reg 1 * reg $end
    $var reg 1 " CLR $end
    $var reg 1 ! Q $end
    $var reg 1 # reset $end
    $var reg 1 $ clk $end
  $upscope $end
$upscope $end
$enddefinitions $end

b0b0 !
b0b0 "
b0b0 #
b0b0 $
b0b0 %
b0b0 &
b0b000 '
b0b0 (
b0b0 )
b0b0 *

#0
b0b1 $

b0b1 #
b0b000 '
b0b0 (

#50
b0b0 $
#100
b0b1 $


#150
b0b0 $
#200
b0b1 $


#250
b0b0 $
#300
b0b1 $

b0b1 "
b0b0 #

#350
b0b0 $
#400
b0b1 $

b0b1 &
b0b001 '
b0b1 )

#450
b0b0 $
#500
b0b1 $

b0b0 "

#550
b0b0 $
#600
b0b1 $

b0b1 !
b0b0 &
b0b010 '
b0b0 )
b0b1 *

#650
b0b0 $
#700
b0b1 $

b0b0 !
b0b1 %
b0b100 '
b0b1 (
b0b0 *

#750
b0b0 $
#800
b0b1 $

b0b0 %
b0b1 &
b0b001 '
b0b0 (
b0b1 )

#850
b0b0 $
#900
b0b1 $

b0b1 !
b0b1 "
b0b0 &
b0b010 '
b0b0 )
b0b1 *

#950
b0b0 $
#1000
b0b1 $

b0b0 !
b0b0 "
b0b1 &
b0b001 '
b0b1 )
b0b0 *

#1050
b0b0 $
#1100
b0b1 $

b0b1 !
b0b0 &
b0b010 '
b0b0 )
b0b1 *

#1150
b0b0 $
#1200
b0b1 $

b0b0 !
b0b1 %
b0b100 '
b0b1 (
b0b0 *

#1250
b0b0 $
#1300
b0b1 $

