SimpleCPUv1a_amaranth/Counter8bit.vcd
$comment Generated by Amaranth $end
$date 2025-04-17 23:28:05.172425 $end
$timescale 1 fs $end
$scope module bench $end
$scope module top $end
$var wire 4 ! A $end
$var wire 4 " A$1 $end
$var wire 16 # Y $end
$var wire 16 $ Y$3 $end
$scope module OneHotDecoder $end
$var wire 4 ! A $end
$var wire 16 $ Y $end
$upscope $end
$upscope $end
$upscope $end
$enddefinitions $end
#0
$dumpvars
b0 !
b0 "
b1 #
b1 $
$end
#50000000
b1 "
b1 !
b10 $
b10 #
#150000000
b10 "
b10 !
b100 $
b100 #
#250000000
b11 "
b11 !
b1000 $
b1000 #
#350000000
b100 "
b100 !
b10000 $
b10000 #
#450000000
b101 "
b101 !
b100000 $
b100000 #
#550000000
b110 "
b110 !
b1000000 $
b1000000 #
#650000000
b111 "
b111 !
b10000000 $
b10000000 #
#750000000
b1000 "
b1000 !
b100000000 $
b100000000 #
#850000000
b1001 "
b1001 !
b1000000000 $
b1000000000 #
#950000000
b1010 "
b1010 !
b10000000000 $
b10000000000 #
#1050000000
b1011 "
b1011 !
b100000000000 $
b100000000000 #
#1150000000
b1100 "
b1100 !
b1000000000000 $
b1000000000000 #
#1250000000
b1101 "
b1101 !
b10000000000000 $
b10000000000000 #
#1350000000
b1110 "
b1110 !
b100000000000000 $
b100000000000000 #
#1450000000
b1111 "
b1111 !
b1000000000000000 $
b1000000000000000 #
