SimpleCPUv1a_amaranth/RingCounter.vcd
$comment Generated by Amaranth $end
$date 2025-04-17 23:47:02.030939 $end
$timescale 1 fs $end
$scope module bench $end
$scope module top $end
$var wire 1 ! rst $end
$var wire 1 " CLR $end
$var wire 3 # Q $end
$var wire 3 $ Q$3 $end
$scope module RingCounter $end
$var wire 1 ! rst $end
$var wire 3 $ Q $end
$var wire 1 % D $end
$var wire 1 & D$2 $end
$var wire 1 ' D$3 $end
$var wire 1 ( Q$4 $end
$var wire 1 ) Q$5 $end
$var wire 1 * Q$6 $end
$var wire 1 + clk $end
$scope module FDC1 $end
$var wire 1 ! rst $end
$var wire 1 & D $end
$var wire 1 ) Q $end
$var wire 1 + clk $end
$upscope $end
$scope module FDC2 $end
$var wire 1 ! rst $end
$var wire 1 ' D $end
$var wire 1 * Q $end
$var wire 1 + clk $end
$upscope $end
$scope module FDP $end
$var wire 1 ! rst $end
$var wire 1 % D $end
$var wire 1 ( Q $end
$var wire 1 + clk $end
$upscope $end
$upscope $end
$upscope $end
$upscope $end
$enddefinitions $end
#0
$dumpvars
0!
0"
b1 #
b1 $
0%
1&
0'
1(
0)
0*
0+
$end
#50000000
1+
1)
0(
b10 $
b10 #
0&
1'
#100000000
0+
#150000000
1+
1*
0)
b100 $
b100 #
1%
0'
#200000000
0+
#250000000
1+
0*
1(
b1 $
b1 #
1&
0%
#300000000
0+
#350000000
1+
1)
0(
b10 $
b10 #
0&
1'
1"
1!
0)
1(
b1 $
b1 #
1&
0'
#400000000
0+
#450000000
1+
0"
0!
#500000000
0+
#550000000
1+
1)
0(
b10 $
b10 #
0&
1'
#600000000
0+
#650000000
1+
1*
0)
b100 $
b100 #
1%
0'
